cycleId,stepId,pointLimit,dropTime,intervalPoint,intervalTime,lockTime,mapId,changeTime,areaIds,openDoorIds,respawnPoint,respawnPvpPoint,respawnRange,mapPoint
1,1,100000,2147483647,0,0,86400,,,"[""area_magiccircle1"",""area_iron_gate""]",,"[-16434,208803,-3691]","[-16434,208803,-3691]","[[-32494,229691,-15000,9500],[-32488,261434,-15000,9500],[13778,261502,-15000,9500],[13611,229639,-15000,9500]]",
1,2,420000,259200,0,0,86400,,,"[""area_magiccircle1"",""area_iron_gate""]",,"[-16434,208803,-3691]","[-16434,208803,-3691]","[[-32494,229691,-15000,9500],[-32488,261434,-15000,9500],[13778,261502,-15000,9500],[13611,229639,-15000,9500]]",
1,3,512000,259200,0,0,86400,,,"[""area_magiccircle1"",""area_iron_gate""]",,"[-16434,208803,-3691]","[-16434,208803,-3691]","[[-32494,229691,-15000,9500],[-32488,261434,-15000,9500],[13778,261502,-15000,9500],[13611,229639,-15000,9500]]",
1,4,604000,259200,0,0,86400,,,"[""area_magiccircle1"",""area_iron_gate""]",,"[-16434,208803,-3691]","[-16434,208803,-3691]","[[-32494,229691,-15000,9500],[-32488,261434,-15000,9500],[13778,261502,-15000,9500],[13611,229639,-15000,9500]]",
1,5,696000,259200,0,0,86400,,,"[""area_magiccircle2"",""area_iron_gate""]","[""hell_town_secret_door""]","[-16434,208803,-3691]","[-16434,208803,-3691]","[[-32494,229691,-15000,9500],[-32488,261434,-15000,9500],[13778,261502,-15000,9500],[13611,229639,-15000,9500]]",
1,6,788000,259200,0,0,86400,,,"[""area_magiccircle2"",""area_iron_gate""]","[""hell_town_secret_door""]","[-16434,208803,-3691]","[-16434,208803,-3691]","[[-32494,229691,-15000,9500],[-32488,261434,-15000,9500],[13778,261502,-15000,9500],[13611,229639,-15000,9500]]",
1,7,880000,259200,0,0,86400,,,"[""area_iron_gate""]","[""hell_town_secret_door"",""injury_earth_door""]","[-16434,208803,-3691]","[-16434,208803,-3691]","[[-32494,229691,-15000,9500],[-32488,261434,-15000,9500],[13778,261502,-15000,9500],[13611,229639,-15000,9500]]",
1,8,972000,86400,0,0,600,,,"[""area_iron_gate""]","[""hell_town_secret_door"",""injury_earth_door""]","[-16434,208803,-3691]","[-16434,208803,-3691]","[[-32494,229691,-15000,9500],[-32488,261434,-15000,9500],[13778,261502,-15000,9500],[13611,229639,-15000,9500]]",
1,9,1064000,259200,0,0,86400,,,,"[""hell_town_secret_door"",""injury_earth_door"",""iron_tower_out_door""]","[-16434,208803,-3691]","[-16434,208803,-3691]","[[-32494,229691,-15000,9500],[-32488,261434,-15000,9500],[13778,261502,-15000,9500],[13611,229639,-15000,9500]]",
1,10,1156000,259200,0,0,86400,,,,"[""hell_town_secret_door"",""injury_earth_door"",""iron_tower_out_door""]","[-16434,208803,-3691]","[-16434,208803,-3691]","[[-32494,229691,-15000,9500],[-32488,261434,-15000,9500],[13778,261502,-15000,9500],[13611,229639,-15000,9500]]",
1,11,1248000,259200,0,0,86400,,,,"[""hell_town_secret_door"",""injury_earth_door"",""iron_tower_out_door""]","[-16434,208803,-3691]","[-16434,208803,-3691]","[[-32494,229691,-15000,9500],[-32488,261434,-15000,9500],[13778,261502,-15000,9500],[13611,229639,-15000,9500]]",
1,12,1340000,259200,0,0,86400,,,,"[""hell_town_secret_door"",""injury_earth_door"",""iron_tower_out_door""]","[-16434,208803,-3691]","[-16434,208803,-3691]","[[-32494,229691,-15000,9500],[-32488,261434,-15000,9500],[13778,261502,-15000,9500],[13611,229639,-15000,9500]]",
1,13,20000000,259200,0,0,86400,,,,"[""hell_town_secret_door"",""injury_earth_door"",""iron_tower_out_door""]","[-16434,208803,-3691]","[-16434,208803,-3691]","[[-32494,229691,-15000,9500],[-32488,261434,-15000,9500],[13778,261502,-15000,9500],[13611,229639,-15000,9500]]",
2,1,100,2147483647,0,0,259200,2771,,,,"[-248373,250442,4318]","[-248373,250442,4318]","[[-230562,228850,-15000,-3000],[-230652,198922,-15000,-3000],[-260568,198633,-15000,-3000],[-260853,228928,-15000,-3000]]","[-246857,251960,4331]"
2,2,100000,2147483647,0,0,3600,2772,,,,"[-248373,250442,4318]","[-248373,250442,4318]","[[-230562,228850,-15000,-3000],[-230652,198922,-15000,-3000],[-260568,198633,-15000,-3000],[-260853,228928,-15000,-3000]]","[-246857,251960,4331]"
2,3,1000000,2147483647,0,0,10,2773,,,,"[-248373,250442,4318]","[-248373,250442,4318]","[[-230562,228850,-15000,-3000],[-230652,198922,-15000,-3000],[-260568,198633,-15000,-3000],[-260853,228928,-15000,-3000]]","[-246857,251960,4331]"
2,4,2000000,2147483647,0,0,10,2773,,,,"[-248373,250442,4318]","[-248373,250442,4318]","[[-230562,228850,-15000,-3000],[-230652,198922,-15000,-3000],[-260568,198633,-15000,-3000],[-260853,228928,-15000,-3000]]","[-246857,251960,4331]"
2,5,3000000,2147483647,0,0,10,2773,,,,"[-248373,250442,4318]","[-248373,250442,4318]","[[-230562,228850,-15000,-3000],[-230652,198922,-15000,-3000],[-260568,198633,-15000,-3000],[-260853,228928,-15000,-3000]]","[-246857,251960,4331]"
3,1,10,2147483647,0,0,10800,2766,,"[""13_24_undying_cycle_a1"",""13_24_undying_cycle_a2"",""13_24_undying_cycle_a3"",""13_24_undying_cycle_a4"",""13_24_undying_cycle_a5""]",,"[-183285,205996,-12896]","[-183285,205996,-12896]","[[-182265,204880,-16233,-6233],[-171874,204865,-16233,-6233],[-171884,220348,-16233,-6233],[-188714,220333,-16233,-6233],[-188581,204678,-16233,-6233],[-184537,204665,-16233,-6233],[-184536,206967,-16233,-6233],[-182259,206962,-16233,-6233]]","[-213770,210760,4400]"
3,2,1000000,172800,0,0,10800,2767,,"[""13_24_undying_cycle_a1"",""13_24_undying_cycle_a2"",""13_24_undying_cycle_a3"",""13_24_undying_cycle_a4"",""13_24_undying_cycle_a5""]",,"[-183285,205996,-12896]","[-183285,205996,-12896]","[[-182265,204880,-16233,-6233],[-171874,204865,-16233,-6233],[-171884,220348,-16233,-6233],[-188714,220333,-16233,-6233],[-188581,204678,-16233,-6233],[-184537,204665,-16233,-6233],[-184536,206967,-16233,-6233],[-182259,206962,-16233,-6233]]","[-213770,210760,4400]"
3,3,2000000,0,20833,3600000,86400,2768,,"[""13_24_undying_cycle_s1""]",,"[-183285,205996,-12896]","[-183285,205996,-12896]","[[-182265,204880,-16233,-6233],[-171874,204865,-16233,-6233],[-171884,220348,-16233,-6233],[-188714,220333,-16233,-6233],[-188581,204678,-16233,-6233],[-184537,204665,-16233,-6233],[-184536,206967,-16233,-6233],[-182259,206962,-16233,-6233]]","[-213770,210760,4400]"
3,4,3000000,0,20833,3600000,10800,2769,,"[""13_24_undying_cycle_d1""]",,"[-183285,205996,-12896]","[-183285,205996,-12896]","[[-182265,204880,-16233,-6233],[-171874,204865,-16233,-6233],[-171884,220348,-16233,-6233],[-188714,220333,-16233,-6233],[-188581,204678,-16233,-6233],[-184537,204665,-16233,-6233],[-184536,206967,-16233,-6233],[-182259,206962,-16233,-6233]]","[-213770,210760,4400]"
3,5,4000000,0,20833,3600000,10800,2770,,"[""13_24_undying_cycle_d1""]",,"[-183285,205996,-12896]","[-183285,205996,-12896]","[[-182265,204880,-16233,-6233],[-171874,204865,-16233,-6233],[-171884,220348,-16233,-6233],[-188714,220333,-16233,-6233],[-188581,204678,-16233,-6233],[-184537,204665,-16233,-6233],[-184536,206967,-16233,-6233],[-182259,206962,-16233,-6233]]","[-213770,210760,4400]"
4,1,1,2147483647,0,0,0,,"[""fri"",""18:0""]",,,,,,
4,2,1000000,2147483647,0,0,0,,"[""mon"",""13:0""]",,,,,,
5,1,1,2147483647,0,0,0,,"[""fri"",""18:0""]",,,,,,
5,2,1000000,2147483647,0,0,0,,"[""mon"",""13:0""]",,,,,,
6,1,1,2147483647,0,0,0,,"[""fri"",""18:0""]",,,,,,
6,2,1000000,2147483647,0,0,0,,"[""mon"",""13:0""]",,,,,,