name,type,npcReferenceId,nodesJson
invasion_right,MoveSuperPoint_FollowRail,invasion_right,"[[-249895,217888,-12328],[-249966,217368,-12288],[-250690,217337,-12288],[-250690,216902,-12272],[-250965,216491,-12248],[-251431,216450,-12248],[-251430,215870,-12208],[-251432,215293,-12168],[-251432,214645,-12080],[-251432,213809,-12080],[-251434,213194,-12064],[-251444,212317,-11984],[-251451,212125,-11984],[-251445,211864,-11984],[-251448,211691,-11984],[-251315,211669,-11984],[-250987,211669,-11928],[-250438,211671,-11856],[-250409,211175,-11856],[-250391,209043,-11952],[-248790,207749,-11960]]"
invasion_center,MoveSuperPoint_FollowRail,invasion_center,"[[-251457,217771,-12304],[-251446,217377,-12288],[-251791,217292,-12288],[-252172,216891,-12264],[-251965,216458,-12248],[-251424,216370,-12248],[-251424,215790,-12208],[-251424,215213,-12152],[-251424,214565,-12080],[-251424,213729,-12080],[-251424,213114,-12064],[-251434,212237,-11984],[-251444,212045,-11984],[-251441,211784,-11984],[-251442,211679,-11984],[-251310,211667,-11984],[-250897,211673,-11912],[-250416,211676,-11856],[-250415,211189,-11856],[-250422,209048,-11952],[-250401,207541,-11952]]"
invasion_left,MoveSuperPoint_FollowRail,invasion_left,"[[-252913,217802,-12312],[-252744,217350,-12288],[-252263,217283,-12288],[-252222,216955,-12280],[-252015,216522,-12248],[-251474,216434,-12248],[-251474,215854,-12208],[-251474,215277,-12168],[-251475,214629,-12080],[-251474,213793,-12080],[-251474,213178,-12064],[-251484,212301,-11984],[-251497,212109,-11984],[-251489,211848,-11984],[-251462,211680,-11984],[-251310,211679,-11984],[-250893,211679,-11912],[-250434,211675,-11856],[-250420,211203,-11856],[-250437,209055,-11952],[-252013,207677,-11960]]"
defence_right,MoveSuperPoint_FollowRail,defence_right,"[[-249895,217888,-12328],[-249966,217368,-12288],[-250690,217337,-12288],[-250690,216902,-12272],[-250965,216491,-12248],[-251431,216450,-12248],[-251430,215870,-12208],[-251432,215293,-12168],[-251432,214645,-12080],[-251432,213809,-12080],[-251434,213194,-12064]]"
defence_left,MoveSuperPoint_FollowRail,defence_left,"[[-252913,217802,-12312],[-252744,217350,-12288],[-252263,217283,-12288],[-252222,216955,-12280],[-252015,216522,-12248],[-251474,216434,-12248],[-251474,215854,-12208],[-251474,215277,-12168],[-251475,214629,-12080],[-251474,213793,-12080],[-251474,213178,-12064]]"
Formation_FreeWay,MoveSuperPoint_FollowRail,Formation_FreeWay,"[[-250065,234905,-3968],[-250045,235805,-4040],[-250677,236246,-4152],[-253055,235610,-3888],[-254496,236194,-3272],[-254834,237081,-2768],[-253686,237335,-3072],[-252077,236614,-3352],[-251845,235117,-4128],[-250972,234746,-4144]]"
wagon_loop,MoveSuperPoint_FollowRail,wagon_loop,"[[-179659,211061,-12784],[-179663,210132,-12576],[-179673,209447,-12464],[-178969,209819,-12464],[-178516,209888,-12464],[-178418,210387,-12320],[-178419,211001,-12072],[-178422,211406,-12040],[-178417,211002,-12072],[-178417,210386,-12320],[-178448,209889,-12456],[-178057,209445,-12464],[-178056,208804,-12464],[-178432,208344,-12456],[-178412,207245,-12096],[-178415,206794,-12032],[-178418,207243,-12088],[-178504,208328,-12464],[-178966,208381,-12464],[-179494,208723,-12464],[-179843,208726,-12464],[-180367,208378,-12464],[-180856,208324,-12464],[-180912,207243,-12088],[-180906,206807,-12040],[-180913,207245,-12096],[-180911,208349,-12456],[-181301,208757,-12464],[-181301,209415,-12456],[-180893,209870,-12456],[-180888,210354,-12336],[-180887,211003,-12072],[-180891,211397,-12040],[-180888,211004,-12072],[-180890,209869,-12456],[-180374,209815,-12464],[-179671,209443,-12464]]"
boss_wagon_1,MoveSuperPoint_FollowRail,boss_wagon_1,"[[-179551,207088,-15488],[-179550,207375,-15496],[-180162,207441,-15496],[-180717,207687,-15496],[-181138,208053,-15496],[-181565,208512,-15496],[-181726,209028,-15496],[-181794,209631,-15496],[-181714,210148,-15496],[-181520,210667,-15496],[-181140,211155,-15496],[-180684,211526,-15496],[-180233,211774,-15496],[-179550,211888,-15496],[-179547,211251,-15472]]"
boss_wagon_2,MoveSuperPoint_FollowRail,boss_wagon_2,"[[-179550,207088,-15488],[-179557,207387,-15496],[-178982,207412,-15496],[-178433,207653,-15496],[-177962,208020,-15496],[-177596,208520,-15496],[-177366,209054,-15496],[-177315,209603,-15496],[-177373,210173,-15496],[-177614,210708,-15496],[-177968,211173,-15496],[-178424,211562,-15496],[-178898,211747,-15496],[-179549,211884,-15496],[-179550,211248,-15472]]"
gludio_airport1,MoveSuperPoint_FollowRail,gludio_airport1,"[[-149268,254124,-184],[-148700,254399,-184],[-148313,254841,-184],[-148256,255338,-184]]"
gludio_airport2,MoveSuperPoint_FollowRail,gludio_airport2,"[[-149469,254124,-184],[-150054,254373,-184],[-150431,254837,-184],[-150473,255335,-184]]"
gludio_airport4,MoveSuperPoint_FollowRail,gludio_airport4,"[[-149499,254101,-184],[-150085,254350,-184],[-150462,254813,-184],[-150504,255312,-184]]"
gludio_airport3,MoveSuperPoint_FollowRail,gludio_airport3,"[[-149239,254100,-184],[-148671,254375,-184],[-148284,254817,-184],[-148227,255314,-184]]"
iz111_zone01_01,MoveSuperPoint_FollowRail,iz111_zone01_01,"[[-75650,212107,-7312],[-75373,212107,-7312]]"
iz111_zone01_02,MoveSuperPoint_FollowRail,iz111_zone01_02,"[[-74854,212107,-7312],[-75046,212107,-7312]]"
iz111_zone01_03,MoveSuperPoint_FollowRail,iz111_zone01_03,"[[-74532,212108,-7312],[-74255,212108,-7312]]"
iz111_zone01_04,MoveSuperPoint_FollowRail,iz111_zone01_04,"[[-75200,211178,-7312],[-75200,211465,-7312]]"
iz111_zone01_05,MoveSuperPoint_FollowRail,iz111_zone01_05,"[[-74701,211460,-7312],[-74701,211172,-7312]]"
iz111_zone02_01,MoveSuperPoint_FollowRail,iz111_zone02_01,"[[-75190,210175,-7408],[-74750,210174,-7408]]"
iz111_zone02_02,MoveSuperPoint_FollowRail,iz111_zone02_02,"[[-74743,209820,-7408],[-75168,209820,-7408]]"
iz111_zone03_01,MoveSuperPoint_FollowRail,iz111_zone03_01,"[[-75559,207860,-7504],[-75559,208813,-7504]]"
iz111_zone03_02,MoveSuperPoint_FollowRail,iz111_zone03_02,"[[-74227,208290,-7504],[-74508,208290,-7504]]"
iz111_zone03_03,MoveSuperPoint_FollowRail,iz111_zone03_03,"[[-74522,207063,-7504],[-74206,207064,-7504]]"
iz111_zone03_04,MoveSuperPoint_FollowRail,iz111_zone03_04,"[[-74956,206348,-7504],[-74956,206686,-7504]]"
iz111_zone03_05,MoveSuperPoint_FollowRail,iz111_zone03_05,"[[-75402,206939,-7504],[-75693,206939,-7504]]"
iz111_zone04_01,MoveSuperPoint_FollowRail,iz111_zone04_01,"[[-76378,207852,-7600],[-76628,207852,-7600]]"
iz111_zone04_02,MoveSuperPoint_FollowRail,iz111_zone04_02,"[[-76623,208187,-7600],[-76376,208186,-7600]]"
iz111_zone04_03,MoveSuperPoint_FollowRail,iz111_zone04_03,"[[-76374,208848,-7600],[-76632,208848,-7600]]"
iz111_zone04_04,MoveSuperPoint_FollowRail,iz111_zone04_04,"[[-76928,209189,-7600],[-76928,209446,-7600]]"
iz111_zone04_05,MoveSuperPoint_FollowRail,iz111_zone04_05,"[[-77183,209443,-7600],[-77183,209188,-7600]]"
iz111_zone05_02,MoveSuperPoint_FollowRail,iz111_zone05_02,"[[-78521,208035,-7696],[-78065,208036,-7696]]"
iz111_zone05_03,MoveSuperPoint_FollowRail,iz111_zone05_03,"[[-76881,208037,-7696],[-77340,208036,-7696]]"
iz111_zone05_06,MoveSuperPoint_FollowRail,iz111_zone05_06,"[[-77336,207428,-7696],[-77013,207105,-7696]]"
iz111_zone06_01,MoveSuperPoint_FollowRail,iz111_zone06_01,"[[-78921,206110,-7888],[-78721,206302,-7888]]"
iz111_zone06_02,MoveSuperPoint_FollowRail,iz111_zone06_02,"[[-78855,206443,-7888],[-79066,206237,-7888]]"
iz111_zone06_03,MoveSuperPoint_FollowRail,iz111_zone06_03,"[[-79357,206713,-7888],[-79357,206330,-7888]]"
iz111_zone06_04,MoveSuperPoint_FollowRail,iz111_zone06_04,"[[-79665,206257,-7888],[-79849,206446,-7888]]"
iz111_zone06_05,MoveSuperPoint_FollowRail,iz111_zone06_05,"[[-79999,206302,-7888],[-79787,206104,-7888]]"
iz111_zone06_06,MoveSuperPoint_FollowRail,iz111_zone06_06,"[[-79781,205602,-7888],[-79991,205392,-7888]]"
iz111_zone06_07,MoveSuperPoint_FollowRail,iz111_zone06_07,"[[-79849,205260,-7888],[-79641,205466,-7888]]"
iz111_zone06_08,MoveSuperPoint_FollowRail,iz111_zone06_08,"[[-79363,205379,-7888],[-79364,204964,-7888]]"
iz111_zone06_09,MoveSuperPoint_FollowRail,iz111_zone06_09,"[[-78870,205253,-7888],[-79085,205454,-7888]]"
iz111_zone06_10,MoveSuperPoint_FollowRail,iz111_zone06_10,"[[-78928,205585,-7888],[-78738,205398,-7888]]"
iz111_zone03_06,MoveSuperPoint_FollowRail,iz111_zone03_06,"[[-74246,206515,-7504],[-75668,206515,-7504]]"
iz111_zone05_01,MoveSuperPoint_FollowRail,iz111_zone05_01,"[[-78054,208464,-7696],[-77361,208464,-7696]]"
iz111_zone05_04,MoveSuperPoint_FollowRail,iz111_zone05_04,"[[-78335,207793,-7696],[-77060,207793,-7696]]"
iz111_zone05_05,MoveSuperPoint_FollowRail,iz111_zone05_05,"[[-77702,207414,-7696],[-77702,208184,-7696]]"
iz111_zone07_01,MoveSuperPoint_FollowRail,iz111_zone07_01,"[[-81938,205856,-7984],[-81125,205855,-7984]]"
scribe_leandro,MoveSuperPoint_FollowRail,scribe_leandro,"[[-82428,245204,-3712],[-82198,245361,-3712],[-82091,245028,-3720],[-82381,244911,-3720],[-82935,244481,-3728],[-83980,242776,-3728],[-85966,241371,-3728],[-86079,240868,-3720],[-86076,240392,-3712],[-86519,240706,-3704],[-86343,241130,-3728]]"
porter_remy,MoveSuperPoint_FollowRail,porter_remy,"[[-81926,243894,-3712],[-82134,243600,-3728],[-83182,243723,-3728],[-84486,243236,-3728],[-85205,243187,-3728],[-86152,242898,-3728],[-86288,242962,-3720],[-86352,243207,-3720],[-86501,242762,-3720],[-86500,242615,-3728],[-86123,241606,-3728],[-85207,240698,-3728],[-84066,241285,-3728],[-83215,241170,-3728],[-82364,242944,-3720],[-81674,243391,-3712],[-81926,243894,-3712]]"
flame_keeper_yakand,MoveSuperPoint_FollowRail,flame_keeper_yakand,"[[-48820,-113748,-232],[-47365,-113618,-224],[-45678,-113635,-240],[-45168,-114038,-224],[-44671,-114185,-240],[-44199,-113763,-240],[-44312,-113201,-240],[-44844,-112958,-240],[-45717,-113564,-240],[-47370,-113588,-224],[-48821,-113496,-232],[-48820,-113748,-232]]"
flame_keeper_lokar,MoveSuperPoint_FollowRail,flame_keeper_lokar,"[[-46516,-117700,-240],[-45550,-115420,-240],[-44052,-114575,-240],[-44024,-112688,-240],[-45748,-111665,-240],[-46512,-109390,-208]]"
parade_a1,MoveSuperPoint_FollowRail,parade_a1,"[[-55842,-58723,-2008],[-60772,-58722,-2008]]"
parade_a7,MoveSuperPoint_FollowRail,parade_a7,"[[-55836,-58951,-2008],[-60767,-58944,-2008]]"
parade_a2,MoveSuperPoint_FollowRail,parade_a2,"[[-55840,-58760,-2008],[-60771,-58758,-2008]]"
parade_a3,MoveSuperPoint_FollowRail,parade_a3,"[[-55840,-58800,-2008],[-60773,-58798,-2008]]"
parade_a4,MoveSuperPoint_FollowRail,parade_a4,"[[-55841,-58843,-2008],[-60773,-58838,-2008]]"
parade_a5,MoveSuperPoint_FollowRail,parade_a5,"[[-55843,-58880,-2008],[-60772,-58876,-2008]]"
parade_a6,MoveSuperPoint_FollowRail,parade_a6,"[[-55841,-58915,-2008],[-60769,-58912,-2008]]"
parade_b1,MoveSuperPoint_FollowRail,parade_b1,"[[-61601,-57877,-2008],[-61605,-54687,-2016],[-61605,-53955,-2104]]"
parade_b2,MoveSuperPoint_FollowRail,parade_b2,"[[-61638,-57883,-2008],[-61640,-54689,-2016],[-61640,-53955,-2104]]"
parade_b3,MoveSuperPoint_FollowRail,parade_b3,"[[-61677,-57883,-2008],[-61672,-54688,-2016],[-61676,-53953,-2104]]"
parade_b4,MoveSuperPoint_FollowRail,parade_b4,"[[-61716,-57881,-2008],[-61710,-54686,-2016],[-61711,-53952,-2104]]"
parade_b5,MoveSuperPoint_FollowRail,parade_b5,"[[-61759,-57879,-2008],[-61745,-54688,-2016],[-61744,-53951,-2104]]"
parade_b6,MoveSuperPoint_FollowRail,parade_b6,"[[-61798,-57874,-2008],[-61780,-54687,-2016],[-61774,-53950,-2104]]"
parade_b7,MoveSuperPoint_FollowRail,parade_b7,"[[-61837,-57872,-2008],[-61819,-54692,-2016],[-61815,-53949,-2104]]"
parade_c1,MoveSuperPoint_FollowRail,parade_c1,"[[-60743,-53179,-2096],[-59149,-53186,-2040],[-58656,-53182,-2008]]"
parade_c2,MoveSuperPoint_FollowRail,parade_c2,"[[-60744,-53142,-2096],[-59156,-53144,-2040],[-58654,-53148,-2008]]"
parade_c3,MoveSuperPoint_FollowRail,parade_c3,"[[-60743,-53107,-2096],[-59157,-53108,-2040],[-58660,-53111,-2008]]"
parade_c4,MoveSuperPoint_FollowRail,parade_c4,"[[-60746,-53071,-2096],[-59159,-53064,-2040],[-58659,-53067,-2008]]"
parade_c5,MoveSuperPoint_FollowRail,parade_c5,"[[-60745,-53037,-2096],[-59153,-53025,-2040],[-58662,-53027,-2008]]"
parade_c6,MoveSuperPoint_FollowRail,parade_c6,"[[-60742,-53004,-2096],[-59151,-52997,-2040],[-58666,-52994,-2008]]"
parade_c7,MoveSuperPoint_FollowRail,parade_c7,"[[-60739,-52964,-2096],[-59150,-52963,-2040],[-58664,-52963,-2008]]"
parade_d1,MoveSuperPoint_FollowRail,parade_d1,"[[-57316,-53763,-2008],[-55507,-55542,-2008]]"
parade_d2,MoveSuperPoint_FollowRail,parade_d2,"[[-57291,-53729,-2008],[-55473,-55521,-2008]]"
parade_d3,MoveSuperPoint_FollowRail,parade_d3,"[[-57261,-53701,-2008],[-55451,-55496,-2008]]"
parade_d4,MoveSuperPoint_FollowRail,parade_d4,"[[-57232,-53670,-2008],[-55426,-55470,-2008]]"
parade_d5,MoveSuperPoint_FollowRail,parade_d5,"[[-57206,-53646,-2008],[-55401,-55441,-2008]]"
parade_d6,MoveSuperPoint_FollowRail,parade_d6,"[[-57182,-53620,-2008],[-55378,-55414,-2008]]"
parade_d7,MoveSuperPoint_FollowRail,parade_d7,"[[-57157,-53594,-2008],[-55346,-55382,-2008]]"
parade_e1,MoveSuperPoint_FollowRail,parade_e1,"[[-54979,-56897,-2008],[-54982,-57978,-2008]]"
parade_e2,MoveSuperPoint_FollowRail,parade_e2,"[[-54941,-56897,-2008],[-54940,-57974,-2008]]"
parade_e3,MoveSuperPoint_FollowRail,parade_e3,"[[-54905,-56894,-2008],[-54906,-57976,-2008]]"
parade_e4,MoveSuperPoint_FollowRail,parade_e4,"[[-54866,-56895,-2008],[-54868,-57982,-2008]]"
parade_e5,MoveSuperPoint_FollowRail,parade_e5,"[[-54828,-56895,-2008],[-54829,-57981,-2008]]"
parade_e6,MoveSuperPoint_FollowRail,parade_e6,"[[-54791,-56894,-2008],[-54789,-57984,-2008]]"
parade_e7,MoveSuperPoint_FollowRail,parade_e7,"[[-54757,-56895,-2008],[-54758,-57986,-2008]]"
show_skillteam_a1,MoveSuperPoint_FollowRail,show_skillteam_a1,"[[-56494,-56383,-2008],[-56546,-56384,-2008],[-56597,-56384,-2008],[-56596,-56428,-2008],[-56593,-56474,-2008],[-56542,-56474,-2008],[-56493,-56473,-2008],[-56495,-56425,-2008],[-56495,-56398,-2008],[-56549,-56361,-2008],[-56596,-56381,-2008],[-56647,-56383,-2008],[-56646,-56428,-2008],[-56645,-56475,-2008],[-56592,-56477,-2008],[-56542,-56478,-2008],[-56485,-56476,-2008],[-56488,-56425,-2008],[-56492,-56383,-2008]]"
show_skillteam_a2,MoveSuperPoint_FollowRail,show_skillteam_a2,"[[-56503,-56291,-2008],[-56550,-56291,-2008],[-56601,-56293,-2008],[-56603,-56247,-2008],[-56605,-56203,-2008],[-56553,-56202,-2008],[-56504,-56200,-2008],[-56503,-56243,-2008],[-56500,-56274,-2008],[-56550,-56310,-2008],[-56600,-56295,-2008],[-56651,-56294,-2008],[-56654,-56249,-2008],[-56654,-56204,-2008],[-56606,-56202,-2008],[-56554,-56198,-2008],[-56501,-56196,-2008],[-56500,-56243,-2008],[-56496,-56290,-2008]]"
show_skillteam_b1,MoveSuperPoint_FollowRail,show_skillteam_b1,"[[-56493,-56426,-2008],[-56495,-56381,-2008],[-56548,-56383,-2008],[-56597,-56383,-2008],[-56594,-56428,-2008],[-56593,-56473,-2008],[-56541,-56473,-2008],[-56491,-56471,-2008],[-56491,-56429,-2008],[-56492,-56380,-2008],[-56547,-56361,-2008],[-56598,-56380,-2008],[-56648,-56385,-2008],[-56645,-56429,-2008],[-56644,-56474,-2008],[-56592,-56476,-2008],[-56542,-56475,-2008],[-56491,-56476,-2008],[-56488,-56429,-2008]]"
show_skillteam_b2,MoveSuperPoint_FollowRail,show_skillteam_b2,"[[-56506,-56246,-2008],[-56500,-56288,-2008],[-56551,-56292,-2008],[-56601,-56293,-2008],[-56602,-56248,-2008],[-56605,-56202,-2008],[-56554,-56202,-2008],[-56503,-56201,-2008],[-56502,-56245,-2008],[-56500,-56290,-2008],[-56551,-56313,-2008],[-56601,-56293,-2008],[-56651,-56294,-2008],[-56653,-56250,-2008],[-56654,-56204,-2008],[-56605,-56203,-2008],[-56554,-56202,-2008],[-56503,-56200,-2008],[-56502,-56244,-2008]]"
show_skillteam_e1,MoveSuperPoint_FollowRail,show_skillteam_e1,"[[-56492,-56468,-2008],[-56493,-56426,-2008],[-56497,-56381,-2008],[-56544,-56381,-2008],[-56596,-56383,-2008],[-56594,-56428,-2008],[-56645,-56429,-2008],[-56647,-56384,-2008],[-56649,-56362,-2008],[-56655,-56384,-2008],[-56654,-56429,-2008],[-56644,-56474,-2008],[-56593,-56473,-2008],[-56543,-56472,-2008],[-56491,-56471,-2008]]"
show_skillteam_e2,MoveSuperPoint_FollowRail,show_skillteam_e2,"[[-56508,-56205,-2008],[-56505,-56246,-2008],[-56504,-56291,-2008],[-56550,-56291,-2008],[-56600,-56292,-2008],[-56603,-56248,-2008],[-56653,-56249,-2008],[-56651,-56294,-2008],[-56650,-56316,-2008],[-56657,-56295,-2008],[-56660,-56250,-2008],[-56656,-56205,-2008],[-56606,-56204,-2008],[-56554,-56203,-2008],[-56506,-56203,-2008]]"
show_skillteam_d1,MoveSuperPoint_FollowRail,show_skillteam_d1,"[[-56550,-56425,-2008],[-56595,-56428,-2008],[-56596,-56383,-2008],[-56648,-56384,-2008],[-56645,-56429,-2008],[-56644,-56475,-2008],[-56595,-56473,-2008],[-56542,-56473,-2008],[-56492,-56472,-2008],[-56495,-56426,-2008],[-56540,-56426,-2008]]"
show_skillteam_d2,MoveSuperPoint_FollowRail,show_skillteam_d2,"[[-56554,-56247,-2008],[-56603,-56249,-2008],[-56601,-56294,-2008],[-56651,-56295,-2008],[-56653,-56248,-2008],[-56655,-56206,-2008],[-56605,-56203,-2008],[-56554,-56202,-2008],[-56504,-56201,-2008],[-56502,-56247,-2008],[-56549,-56248,-2008]]"
show_skillteam_c1,MoveSuperPoint_FollowRail,show_skillteam_c1,"[[-56516,-56334,-2008],[-56549,-56335,-2008],[-56599,-56337,-2008],[-56649,-56341,-2008],[-56600,-56341,-2008],[-56553,-56338,-2008],[-56508,-56331,-2008]]"
glu_ore_fort_ordery,MoveSuperPoint_FollowRail,glu_ore_fort_ordery,"[[-55940,86028,-3592],[-57100,86041,-3648],[-57474,85317,-3672],[-58886,85158,-3768],[-58945,83635,-3712],[-59031,80133,-3632],[-57637,77601,-3512],[-53969,77670,-3224],[-53268,85201,-3552]]"
gludio_fort_a_ordery,MoveSuperPoint_FollowRail,gludio_fort_a_ordery,"[[-56568,156852,-2312],[-57454,156591,-2544],[-58661,154727,-2672],[-58288,154529,-2656],[-55883,154544,-2536],[-54363,153572,-2576],[-52347,151848,-2560],[-50428,151452,-2768],[-49665,153652,-2552],[-49003,154902,-2272]]"
ruin_prophet_gludio,MoveSuperPoint_FollowRail,ruin_prophet_gludio,"[[-13095,122262,-2984],[-13892,122266,-2984],[-14148,121679,-2984],[-14153,121252,-2984],[-13667,121247,-2984],[-14566,121247,-2984],[-14162,121268,-2984]]"
gludio_fort_b_ordery,MoveSuperPoint_FollowRail,gludio_fort_b_ordery,"[[-28118,217199,-3528],[-28234,216345,-3608],[-29163,214927,-3672],[-30419,213895,-3672],[-31460,212507,-3656],[-31926,211635,-3656],[-30641,210802,-3496],[-29121,210523,-3272],[-27774,210012,-3272],[-25777,209989,-3272],[-23946,210753,-3272],[-20539,211994,-3432],[-19284,212660,-3640],[-17079,212816,-3704],[-15972,212675,-3656],[-16737,213741,-3656],[-17099,215552,-3560],[-18200,216833,-3496]]"
deco_01,MoveSuperPoint_FollowRail,deco_01,"[[25996,-28172,-4672],[20953,-30284,-4672],[12748,-30000,-4672],[8305,-29167,-4504],[4277,-25698,-4432],[8227,-23426,-3688],[17408,-25980,-4272]]"
deco_02,MoveSuperPoint_FollowRail,deco_02,"[[23672,-28116,-4656],[20055,-25450,-4128],[15519,-25191,-4128],[12979,-26725,-4192],[13058,-29807,-4672],[16925,-31174,-4672],[20126,-30973,-4672]]"
deco_03,MoveSuperPoint_FollowRail,deco_03,"[[19372,-28104,-4616],[16964,-30887,-4672],[10565,-31500,-4656],[7278,-27914,-4384],[9831,-24162,-3728],[14511,-24298,-3848],[18770,-26063,-4256]]"
deco_04,MoveSuperPoint_FollowRail,deco_04,"[[19376,-26376,-4336],[17285,-25262,-4208],[13597,-25154,-4104],[9699,-28398,-4512],[13312,-31185,-4672],[15906,-31278,-4672],[19052,-29835,-4672]]"
deco_05,MoveSuperPoint_FollowRail,deco_05,"[[14976,-23388,-2920],[13301,-26899,-4216],[10149,-28711,-4592],[6904,-25301,-3992],[7706,-23357,-3704],[10751,-21795,-3272],[12912,-22109,-1544]]"
deco_06,MoveSuperPoint_FollowRail,deco_06,"[[10752,-19152,-1368],[9295,-21759,-3608],[6384,-22093,-3272],[4923,-20438,-3512],[4682,-17837,-3672],[6849,-14989,-3712],[9563,-17646,-2640]]"
deco_07,MoveSuperPoint_FollowRail,deco_07,"[[10544,-7616,-512],[9908,-9301,-1120],[9437,-10691,-2936],[8135,-12114,-4056],[5746,-12050,-3632],[4096,-9078,-3592],[7441,-6059,-3368]]"
deco_11,MoveSuperPoint_FollowRail,deco_11,"[[11064,-5924,-392],[7872,-7292,-3552],[5373,-6026,-3304],[3498,-3714,-4288],[4008,-600,-4624],[8655,-1721,-4408],[12722,-3880,-3400]]"
deco_08,MoveSuperPoint_FollowRail,deco_08,"[[14000,-7748,-1600],[16052,-8284,-3248],[17760,-10173,-2752],[17286,-12230,-3120],[15175,-13418,-3176],[13757,-11035,-3160],[13085,-8628,-3048]]"
deco_09,MoveSuperPoint_FollowRail,deco_09,"[[17224,-5976,-2360],[19315,-8116,-2520],[19597,-11215,-2816],[18095,-13234,-3112],[15483,-12340,-3024],[13777,-10215,-2280],[15579,-7218,-3144]]"
deco_10,MoveSuperPoint_FollowRail,deco_10,"[[20672,-6940,-1920],[21845,-7732,-2368],[22507,-9081,-2720],[21598,-10647,-2808],[20172,-11004,-2832],[19180,-9746,-2808],[19583,-7852,-2376]]"
deco_14,MoveSuperPoint_FollowRail,deco_14,"[[26552,-8872,-1928],[27629,-10787,-2328],[27644,-12294,-2328],[26097,-13455,-872],[23845,-11954,-2528],[23646,-10692,-2608],[24845,-9546,-2408]]"
deco_15,MoveSuperPoint_FollowRail,deco_15,"[[22548,-13076,-2976],[23895,-14234,-2984],[23707,-16244,-2936],[21915,-17100,-2976],[19455,-16318,-3096],[18770,-15216,-3064],[19592,-13689,-2808]]"
deco_16,MoveSuperPoint_FollowRail,deco_16,"[[19640,-12260,-1208],[17915,-12202,-3104],[16348,-12683,-2256],[17063,-15696,-3168],[19585,-16390,-3096],[21541,-15378,-3048],[20649,-13004,-2696]]"
deco_17,MoveSuperPoint_FollowRail,deco_17,"[[28604,-13224,-1760],[27638,-11281,-1056],[26008,-11280,-2480],[24726,-12574,-2512],[24345,-14545,-2928],[25429,-15963,-2752],[27174,-15434,-2608]]"
deco_18,MoveSuperPoint_FollowRail,deco_18,"[[22472,-12516,-2584],[21660,-10961,-2784],[20438,-10831,-2832],[18434,-11482,-2960],[18278,-13814,-3080],[19414,-15070,-3048],[20985,-14537,-3056]]"
deco_19,MoveSuperPoint_FollowRail,deco_19,"[[29620,-16416,-2048],[27933,-18073,-2568],[26257,-18226,-2640],[25005,-16985,-2776],[26046,-15035,-2248],[28025,-14213,-2368],[29124,-14851,-2176]]"
deco_20,MoveSuperPoint_FollowRail,deco_20,"[[28912,-19312,-1456],[26647,-19756,-2232],[24859,-18781,-2696],[24248,-16772,-2776],[26219,-14616,-2696],[28197,-14515,-2376],[29483,-16554,-2104]]"
deco_21,MoveSuperPoint_FollowRail,deco_21,"[[26396,-20996,-872],[27622,-19076,-2416],[26820,-17535,-2648],[24954,-16899,-2776],[23540,-17472,-2816],[22930,-19309,-2704],[24446,-20895,-2600]]"
deco_22,MoveSuperPoint_FollowRail,deco_22,"[[23548,-22832,-1344],[24656,-21219,-2512],[24316,-18630,-2720],[22291,-17538,-2968],[20472,-19046,-3280],[20341,-20808,-3120],[21934,-22230,-1152]]"
deco_23,MoveSuperPoint_FollowRail,deco_23,"[[20204,-22152,-2496],[21715,-20295,-3024],[21663,-18718,-3040],[19364,-17626,-3176],[18171,-18453,-3216],[17977,-19913,-3264],[19138,-21443,-1640]]"
deco_24,MoveSuperPoint_FollowRail,deco_24,"[[17332,-21296,-1464],[19609,-20492,-3184],[19477,-18046,-3240],[18172,-16680,-3168],[15995,-16198,-3192],[14505,-17450,-3128],[15904,-20046,-2656]]"
deco_25,MoveSuperPoint_FollowRail,deco_25,"[[15036,-20296,-2320],[16945,-19393,-2632],[17852,-17215,-3224],[16622,-15668,-3192],[15237,-15609,-3160],[13819,-17188,-2936],[13872,-19112,-2768]]"
deco_13,MoveSuperPoint_FollowRail,deco_13,"[[9572,-15560,-2592],[7393,-17864,-3624],[4864,-17979,-3688],[3477,-16075,-3552],[3505,-13000,-3704],[5596,-12536,-3632],[8395,-12987,-3984]]"
deco_26,MoveSuperPoint_FollowRail,deco_26,"[[12068,-17392,-1048],[13157,-14717,-3168],[15492,-14342,-3152],[17797,-15050,-3064],[18033,-17248,-3232],[16803,-18422,-3088],[14506,-18453,-3176]]"
deco_27,MoveSuperPoint_FollowRail,deco_27,"[[12684,-14916,-3072],[14111,-16584,-2912],[15372,-15848,-3176],[15970,-14007,-3176],[15377,-12352,-2928],[14270,-12261,-2536],[13162,-13023,-3112]]"
deco_28,MoveSuperPoint_FollowRail,deco_28,"[[13280,-11612,-2248],[13777,-13921,-3200],[15971,-14112,-3176],[17088,-12591,-3112],[16830,-10368,-3232],[16045,-9148,-3264],[14505,-9353,-3256]]"
deco_12,MoveSuperPoint_FollowRail,deco_12,"[[10396,-12932,-2240],[7049,-15082,-3704],[3559,-14649,-3480],[2630,-11326,-3608],[5134,-8427,-3576],[6959,-8536,-3656],[8824,-9372,-2424]]"
deco_29,MoveSuperPoint_FollowRail,deco_29,"[[5432,-22628,-3056],[8586,-25312,-4056],[9312,-28455,-4488],[7005,-31328,-4672],[3182,-32010,-4672],[1205,-28936,-4672],[1981,-24901,-4664]]"
deco_34,MoveSuperPoint_FollowRail,deco_34,"[[3440,-20708,-3088],[1196,-24944,-4672],[1002,-28762,-4672],[3280,-31410,-4672],[7645,-30585,-4656],[9181,-26149,-4136],[7505,-21979,-3296]]"
deco_30,MoveSuperPoint_FollowRail,deco_30,"[[2144,-18228,-3352],[3911,-19921,-3448],[6070,-20241,-3512],[7700,-18771,-3640],[7377,-16605,-3656],[5616,-15280,-3616],[3533,-15870,-3552]]"
deco_31,MoveSuperPoint_FollowRail,deco_31,"[[1532,-13976,-3232],[2384,-16325,-3312],[4399,-17308,-3648],[6213,-16532,-3688],[6250,-13608,-3704],[5165,-12095,-3632],[3178,-11585,-3648]]"
deco_32,MoveSuperPoint_FollowRail,deco_32,"[[2000,-8504,-3336],[2581,-10953,-3608],[4416,-12032,-3544],[6485,-10914,-3632],[7396,-8769,-3632],[6113,-7231,-3608],[4452,-7114,-3424]]"
deco_33,MoveSuperPoint_FollowRail,deco_33,"[[3876,-5572,-2872],[2839,-7120,-3272],[3891,-8783,-3568],[7069,-8583,-3656],[7561,-5946,-3336],[6685,-3843,-3464],[5037,-3357,-3512]]"
ancient_01,MoveSuperPoint_FollowRail,ancient_01,"[[6396,-20468,-3520],[7750,-20336,-3512],[7757,-21236,-3392],[6360,-21683,-3360],[5266,-21747,-3304],[4713,-21265,-3376],[5546,-20666,-3464],[6096,-21055,-3424]]"
ancient_02,MoveSuperPoint_FollowRail,ancient_02,"[[6476,-18420,-3680],[7625,-18239,-3568],[8112,-18833,-3600],[7516,-19737,-3608],[6308,-19807,-3616],[6993,-18989,-3704]]"
ancient_03,MoveSuperPoint_FollowRail,ancient_03,"[[3192,-18932,-3376],[4988,-18235,-3680],[5469,-19055,-3640],[4576,-19234,-3608],[4745,-19989,-3544],[3948,-20098,-3408]]"
ancient_04,MoveSuperPoint_FollowRail,ancient_04,"[[7372,-17284,-3632],[8086,-16713,-3640],[7709,-16078,-3656],[7747,-15403,-3680],[6588,-15421,-3696],[6703,-17124,-3640],[7221,-16331,-3672]]"
ancient_05,MoveSuperPoint_FollowRail,ancient_05,"[[4732,-15476,-3584],[3894,-16032,-3592],[4033,-17011,-3664],[4526,-17505,-3640],[4781,-16255,-3624],[5810,-16356,-3712],[5355,-15395,-3600],[4308,-16226,-3632]]"
ancient_06,MoveSuperPoint_FollowRail,ancient_06,"[[2672,-16816,-3472],[2587,-15979,-3368],[3286,-16235,-3536],[3330,-17048,-3712],[2777,-16902,-3520],[2460,-17518,-3456],[2809,-18124,-3512],[2699,-17288,-3520]]"
ancient_07,MoveSuperPoint_FollowRail,ancient_07,"[[2196,-15224,-3264],[2403,-15674,-3320],[2528,-15021,-3352],[2948,-14884,-3424],[3081,-13505,-3560],[2287,-13569,-3392],[2052,-14014,-3288],[2642,-14298,-3376],[2099,-14759,-3256]]"
ancient_08,MoveSuperPoint_FollowRail,ancient_08,"[[3452,-14884,-3480],[4296,-15109,-3576],[4897,-14728,-3624],[5210,-14037,-3688],[4945,-13068,-3656],[4577,-13429,-3656],[4429,-14229,-3600],[3907,-14614,-3528],[3637,-13685,-3600]]"
ancient_09,MoveSuperPoint_FollowRail,ancient_09,"[[6172,-14244,-3704],[6504,-13635,-3696],[6743,-12879,-3672],[7165,-13299,-3680],[7994,-13421,-3704],[7113,-13849,-3720],[6372,-14056,-3704]]"
ancient_10,MoveSuperPoint_FollowRail,ancient_10,"[[6124,-11252,-3632],[6076,-12271,-3640],[5558,-12526,-3632],[4317,-12404,-3544],[2854,-12579,-3576],[2367,-11686,-3520],[3317,-11912,-3664],[4287,-11650,-3624],[5264,-12101,-3632],[5770,-11767,-3632]]"
ancient_11,MoveSuperPoint_FollowRail,ancient_11,"[[3628,-10784,-3680],[3530,-11502,-3672],[3159,-12358,-3632],[4248,-12381,-3544],[4800,-12135,-3600],[4418,-11489,-3624],[4395,-10886,-3664]]"
ancient_12,MoveSuperPoint_FollowRail,ancient_12,"[[2508,-9092,-3576],[3286,-8891,-3576],[4596,-8920,-3584],[5355,-9214,-3624],[4480,-9395,-3624],[4004,-9724,-3640],[3613,-9316,-3616],[2882,-9480,-3688]]"
ancient_13,MoveSuperPoint_FollowRail,ancient_13,"[[7052,-10116,-3656],[6454,-10645,-3632],[5552,-10838,-3632],[5564,-10073,-3624],[5035,-9096,-3624],[5887,-8821,-3616],[6041,-10012,-3640],[6939,-9821,-3656],[6791,-8890,-3664],[7644,-9107,-3592],[7568,-9689,-3592]]"
ancient_14,MoveSuperPoint_FollowRail,ancient_14,"[[5148,-6260,-3296],[5535,-6701,-3448],[5220,-7422,-3504],[4535,-6194,-3192],[3843,-6193,-3112],[3428,-7269,-3360],[2764,-8506,-3472],[4079,-6956,-3336]]"
ancient_15,MoveSuperPoint_FollowRail,ancient_15,"[[3564,-8516,-3512],[2716,-7968,-3344],[3239,-7314,-3368],[4481,-6898,-3376],[4066,-7716,-3472],[4535,-8428,-3544],[3525,-7874,-3424]]"
ancient_16,MoveSuperPoint_FollowRail,ancient_16,"[[7388,-8276,-3632],[7217,-9207,-3632],[6110,-8600,-3640],[5851,-7792,-3648],[5955,-6991,-3536],[6660,-6443,-3424],[7332,-7183,-3576],[6902,-7563,-3624],[6814,-8207,-3704],[7721,-7515,-3592]]"
ancient_17,MoveSuperPoint_FollowRail,ancient_17,"[[5600,-21452,-3368],[5753,-20644,-3448],[4416,-19799,-3520],[4730,-18697,-3664],[6725,-18219,-3664],[7385,-19411,-3656],[6589,-20179,-3568],[6202,-19235,-3648],[7664,-20225,-3528],[6312,-20902,-3464]]"
ancient_19,MoveSuperPoint_FollowRail,ancient_19,"[[3484,-19396,-3408],[4411,-18442,-3632],[4350,-17434,-3632],[3162,-16426,-3544],[2516,-17191,-3456],[2951,-18259,-3512],[4044,-19236,-3528]]"
ancient_18,MoveSuperPoint_FollowRail,ancient_18,"[[8172,-18772,-3600],[7115,-19325,-3688],[6438,-18098,-3672],[6809,-17361,-3640],[6512,-16490,-3672],[6797,-15671,-3680],[7787,-16366,-3648],[7495,-17481,-3632],[7778,-18271,-3544]]"
ancient_20,MoveSuperPoint_FollowRail,ancient_20,"[[8116,-14980,-3688],[7348,-15926,-3680],[6236,-16320,-3696],[5423,-15456,-3608],[3772,-14891,-3512],[4780,-14340,-3632],[5750,-15147,-3640],[7029,-15550,-3680]]"
ancient_21,MoveSuperPoint_FollowRail,ancient_21,"[[4940,-14308,-3648],[5166,-15357,-3608],[4563,-16332,-3648],[4866,-17203,-3680],[2817,-16444,-3480],[2173,-15383,-3208],[2745,-14568,-3384],[3435,-13837,-3544],[4250,-14814,-3568]]"
ancient_22,MoveSuperPoint_FollowRail,ancient_22,"[[1932,-13524,-3280],[2535,-12238,-3520],[3389,-12187,-3680],[2874,-13014,-3568],[3448,-14125,-3512],[2200,-14983,-3264],[2621,-13883,-3424]]"
ancient_23,MoveSuperPoint_FollowRail,ancient_23,"[[4172,-12132,-3544],[4628,-13129,-3656],[5192,-13228,-3664],[5591,-12989,-3656],[6488,-12905,-3672],[6596,-12276,-3640],[6112,-11581,-3632],[6412,-11135,-3632],[5752,-10940,-3632],[5564,-12024,-3632],[5763,-12360,-3640],[4916,-12410,-3616]]"
ancient_24,MoveSuperPoint_FollowRail,ancient_24,"[[6796,-13012,-3664],[5702,-12901,-3648],[5150,-12336,-3632],[5799,-11616,-3632],[6068,-12169,-3640],[6622,-11990,-3640],[6473,-12548,-3656]]"
ancient_26,MoveSuperPoint_FollowRail,ancient_26,"[[5388,-10244,-3632],[5051,-10633,-3648],[5632,-10984,-3632],[5815,-11448,-3632],[6713,-11060,-3632],[6199,-10352,-3624],[6081,-10840,-3632],[5651,-10232,-3624]]"
ancient_25,MoveSuperPoint_FollowRail,ancient_25,"[[2396,-10564,-3576],[2058,-11061,-3464],[2047,-11495,-3472],[2753,-11956,-3592],[3504,-11804,-3712],[3766,-10986,-3696],[3906,-9871,-3648],[3074,-9261,-3640],[2314,-9171,-3568],[1839,-9489,-3472],[2396,-10156,-3624]]"
ancient_27,MoveSuperPoint_FollowRail,ancient_27,"[[3548,-9924,-3656],[2899,-9101,-3600],[1870,-9054,-3416],[3400,-8130,-3440],[4028,-8553,-3552],[4937,-8934,-3592],[4602,-9181,-3600],[3917,-9351,-3624]]"
ancient_28,MoveSuperPoint_FollowRail,ancient_28,"[[4540,-7284,-3432],[3883,-7835,-3472],[3122,-7823,-3376],[3378,-6843,-3296],[4187,-6284,-3168],[5094,-6592,-3384],[6805,-6142,-3360],[7546,-6790,-3520],[7118,-7648,-3624],[6554,-7452,-3616],[6085,-8172,-3664],[5349,-7371,-3520]]"
ancient_29,MoveSuperPoint_FollowRail,ancient_29,"[[5820,-8660,-3608],[5465,-9186,-3672],[5462,-10032,-3624],[6702,-10691,-3656],[7332,-10246,-3656],[7465,-9325,-3600],[7058,-8877,-3656],[7392,-7940,-3640],[6296,-8239,-3720]]"
lost_01,MoveSuperPoint_Random,lost_01,"[[14700,-18660,-3176],[14834,-18218,-3184],[14454,-18025,-3152],[14066,-17702,-3080],[13678,-18006,-3040],[14097,-18428,-3144],[14397,-18246,-3152]]"
lost_02,MoveSuperPoint_Random,lost_02,"[[13596,-17588,-2928],[14062,-17448,-3048],[14353,-17906,-3128],[13946,-18411,-3120],[13913,-17813,-3056]]"
lost_03,MoveSuperPoint_Random,lost_03,"[[16108,-18516,-3192],[16365,-17807,-3208],[15341,-17594,-3208],[14384,-16984,-3096],[15211,-16815,-3192],[15865,-17047,-3224],[15952,-17634,-3216]]"
lost_04,MoveSuperPoint_Random,lost_04,"[[16428,-16468,-3224],[17262,-16344,-3216],[16623,-17032,-3224],[15842,-16710,-3216],[15287,-17032,-3208],[15674,-17420,-3216],[16550,-17421,-3224]]"
lost_05,MoveSuperPoint_FollowRail,lost_05,"[[17932,-18484,-3208],[17361,-17654,-3208],[17493,-16916,-3208],[17924,-16217,-3168],[18915,-16756,-3152],[18599,-17658,-3216],[17949,-17526,-3224],[18069,-17924,-3208]]"
lost_06,MoveSuperPoint_Random,lost_06,"[[19052,-17220,-3192],[18348,-17352,-3216],[18209,-18197,-3208],[18616,-18639,-3240],[19111,-18166,-3224],[18823,-17812,-3208]]"
lost_07,MoveSuperPoint_FollowRail,lost_07,"[[20140,-17876,-3160],[20261,-18344,-3224],[19998,-18674,-3256],[19471,-18401,-3256],[19343,-18002,-3240],[19000,-17800,-3208],[19637,-17976,-3216],[19751,-18203,-3232],[20002,-18075,-3200]]"
lost_08,MoveSuperPoint_Random,lost_08,"[[17932,-19396,-3240],[18080,-19608,-3264],[18399,-19408,-3272],[18630,-19000,-3264],[18412,-18763,-3232],[18183,-18918,-3216],[18228,-19156,-3240],[18147,-19324,-3232]]"
lost_09,MoveSuperPoint_Random,lost_09,"[[19036,-19972,-3296],[18588,-19850,-3280],[18494,-19487,-3280],[18825,-19027,-3288],[19276,-19214,-3328],[18917,-19494,-3304],[19220,-19673,-3320]]"
lost_10,MoveSuperPoint_Random,lost_10,"[[19836,-19476,-3320],[20095,-19526,-3304],[19988,-20038,-3272],[19779,-20276,-3232],[19627,-20056,-3280],[19279,-19907,-3296],[19503,-19777,-3312],[19452,-19534,-3320],[19838,-19781,-3312]]"
lost_11,MoveSuperPoint_Random,lost_11,"[[20316,-21156,-3032],[20097,-20772,-3136],[20346,-20133,-3264],[21016,-20014,-3296],[21020,-20880,-3104],[20576,-20748,-3168]]"
lost_12,MoveSuperPoint_Random,lost_12,"[[21144,-19184,-3256],[21226,-19092,-3248],[21014,-18418,-3200],[20676,-18312,-3192],[20363,-18420,-3208],[20797,-18573,-3248],[20845,-19076,-3256]]"
lost_13,MoveSuperPoint_Random,lost_13,"[[21052,-19764,-3288],[20914,-19984,-3296],[20233,-19918,-3296],[20314,-19697,-3296],[20723,-19603,-3280],[20886,-19435,-3264],[21116,-19466,-3264]]"
lost_14,MoveSuperPoint_Random,lost_14,"[[23868,-21572,-2512],[23025,-21395,-2544],[22687,-20963,-2480],[22814,-20274,-2640],[23629,-20807,-2696],[24254,-20608,-2664],[24235,-21170,-2584]]"
lost_15,MoveSuperPoint_Random,lost_15,"[[23540,-20036,-2768],[22999,-19773,-2688],[22675,-19556,-2640],[22646,-20178,-2616],[23029,-20823,-2632],[23691,-20688,-2704],[23164,-20239,-2680]]"
lost_16,MoveSuperPoint_FollowRail,lost_16,"[[24652,-19984,-2640],[24297,-20046,-2728],[24214,-19323,-2768],[25001,-18986,-2640],[25081,-18514,-2704],[25848,-18720,-2592],[25325,-19416,-2616],[24936,-19442,-2648],[24984,-19912,-2616]]"
lost_17,MoveSuperPoint_FollowRail,lost_17,"[[24116,-18880,-2768],[23813,-19178,-2792],[24375,-18888,-2744],[24374,-18312,-2712],[23572,-18170,-2696],[24265,-18710,-2728],[24060,-18407,-2736]]"
lost_18,MoveSuperPoint_Random,lost_18,"[[23900,-19892,-2784],[24538,-19677,-2696],[23875,-20474,-2736],[22909,-19841,-2672],[23733,-19695,-2784],[24439,-19038,-2744]]"
lost_19,MoveSuperPoint_Random,lost_19,"[[23708,-17748,-2776],[24150,-18486,-2728],[24842,-18214,-2728],[24935,-17794,-2736],[25530,-17551,-2760],[24763,-16997,-2776],[24178,-17335,-2776]]"
lost_20,MoveSuperPoint_Random,lost_20,"[[24668,-16452,-2776],[25230,-16244,-2768],[26004,-16464,-2712],[25994,-17136,-2752],[25251,-17475,-2768],[25305,-16912,-2776],[24727,-17176,-2776]]"
lost_21,MoveSuperPoint_Random,lost_21,"[[27452,-16564,-2664],[26905,-16338,-2672],[26245,-16290,-2680],[26115,-16722,-2712],[26361,-17308,-2736],[26837,-17189,-2728],[27289,-17133,-2680],[26658,-16919,-2712],[26740,-16596,-2688]]"
lost_22,MoveSuperPoint_Random,lost_22,"[[27788,-17284,-2568],[27672,-16633,-2656],[27309,-16885,-2656],[27270,-17292,-2688],[28049,-17659,-2560],[28100,-17155,-2552],[27631,-16876,-2632]]"
lost_23,MoveSuperPoint_FollowRail,lost_23,"[[24844,-16756,-2776],[24115,-16985,-2776],[25319,-17128,-2784],[25694,-16696,-2744],[26623,-16433,-2680],[27258,-16633,-2672],[27623,-17035,-2624],[27191,-17318,-2688],[26487,-16943,-2728],[25546,-16403,-2752]]"
lost_24,MoveSuperPoint_FollowRail,lost_24,"[[28092,-15332,-2576],[27834,-16019,-2680],[26877,-15830,-2648],[27293,-15698,-2640],[27528,-15501,-2640],[27595,-15455,-2640],[27811,-14943,-2560]]"
lost_25,MoveSuperPoint_Random,lost_25,"[[24652,-15668,-2768],[25001,-15249,-2744],[25133,-14833,-2736],[25664,-14752,-2712],[25759,-15234,-2720],[25526,-15600,-2736],[25233,-15218,-2736]]"
lost_26,MoveSuperPoint_Random,lost_26,"[[25692,-15908,-2728],[25712,-15546,-2720],[25107,-15744,-2760],[25315,-16313,-2768],[25819,-16306,-2712],[26420,-16423,-2680],[26583,-15987,-2664],[26337,-15759,-2680]]"
lost_27,MoveSuperPoint_Random,lost_27,"[[27356,-15940,-2672],[27137,-16495,-2672],[26388,-16176,-2664],[26870,-15913,-2648],[27216,-15638,-2624],[27719,-15815,-2672]]"
lost_28,MoveSuperPoint_Random,lost_28,"[[23692,-15332,-2984],[24112,-14936,-2968],[22940,-15094,-3048],[22684,-15749,-3032],[22678,-16792,-3000],[23267,-16605,-2976],[22981,-15941,-3024],[23588,-15869,-2976]]"
lost_29,MoveSuperPoint_Random,lost_29,"[[22124,-16468,-2984],[22711,-16240,-3008],[22899,-15499,-3040],[22360,-15116,-3048],[21769,-15238,-3048],[21954,-15675,-3032],[22364,-15996,-3000]]"
lost_30,MoveSuperPoint_Random,lost_30,"[[22444,-17508,-2968],[22912,-17308,-2976],[23179,-16787,-2984],[23188,-16194,-3000],[22876,-16169,-3016],[22484,-16539,-2984],[22256,-16936,-2976],[22660,-16978,-2992],[22681,-17176,-2984]]"
lost_31,MoveSuperPoint_Random,lost_31,"[[21004,-15092,-3048],[20208,-14738,-3032],[19297,-14905,-3040],[19098,-15703,-3080],[19454,-16598,-3128],[20210,-16350,-3064],[19795,-15659,-3080],[20199,-15376,-3072],[20581,-15799,-3040],[19696,-15233,-3072]]"
lost_32,MoveSuperPoint_Random,lost_32,"[[18652,-14948,-3040],[19147,-14681,-3008],[19915,-14856,-3040],[19931,-15474,-3080],[19493,-15883,-3080],[19024,-15868,-3080],[19324,-15376,-3072],[19115,-15121,-3056],[18864,-15481,-3072]]"
lost_33,MoveSuperPoint_Random,lost_33,"[[20028,-17236,-3096],[19386,-16783,-3144],[18807,-16615,-3144],[19178,-16159,-3096],[19646,-16060,-3080],[20038,-16331,-3072],[20099,-16677,-3056],[19580,-16612,-3112]]"
lost_34,MoveSuperPoint_Random,lost_34,"[[21372,-15060,-3056],[22151,-14881,-3064],[21924,-15817,-3016],[21463,-15554,-3040],[20872,-15778,-3040],[20383,-15499,-3056],[20640,-15136,-3048],[21040,-14911,-3048]]"
lost_35,MoveSuperPoint_Random,lost_35,"[[20428,-17188,-3064],[20020,-17716,-3160],[19992,-18416,-3232],[20736,-18474,-3232],[20858,-18057,-3128],[20361,-17729,-3120],[20366,-16872,-3048],[19817,-16936,-3104],[20059,-17471,-3128]]"
lost_36,MoveSuperPoint_Random,lost_36,"[[17356,-16264,-3216],[17889,-16386,-3176],[17543,-17021,-3208],[17029,-16797,-3208],[16775,-16319,-3216],[17320,-16445,-3208]]"
lost_37,MoveSuperPoint_Random,lost_37,"[[16828,-15716,-3184],[16601,-16695,-3232],[16342,-16225,-3208],[15753,-16002,-3192],[15936,-15699,-3184],[16376,-15486,-3184],[16319,-15920,-3192]]"
lost_38,MoveSuperPoint_Random,lost_38,"[[17452,-15764,-3184],[17094,-16009,-3208],[16527,-15896,-3200],[16433,-15076,-3176],[16966,-14846,-3168],[17183,-14850,-3128],[17696,-15292,-3112],[17160,-15412,-3136]]"
lost_39,MoveSuperPoint_Random,lost_39,"[[16668,-14532,-3176],[17049,-14652,-3160],[16952,-15275,-3168],[16552,-15357,-3184],[16067,-15224,-3168],[15928,-14789,-3144],[16256,-14501,-3168],[16433,-14860,-3176]]"
lost_40,MoveSuperPoint_Random,lost_40,"[[15548,-15508,-3160],[15225,-15485,-3160],[14903,-15087,-3152],[14902,-14538,-3160],[15391,-14051,-3176],[15970,-14304,-3168],[16136,-14836,-3160],[15519,-15150,-3152]]"
lost_41,MoveSuperPoint_Random,lost_41,"[[14572,-14020,-3208],[15069,-13822,-3192],[15350,-14245,-3160],[14968,-14706,-3152],[14675,-14708,-3160],[14465,-14912,-3144],[14064,-14781,-3128],[14156,-14226,-3200],[14525,-14420,-3192]]"
lost_42,MoveSuperPoint_Random,lost_42,"[[13820,-13732,-3200],[14188,-13536,-3192],[14519,-13728,-3208],[14645,-14219,-3200],[14291,-14485,-3168],[13842,-14275,-3184],[14171,-13927,-3208]]"
lost_43,MoveSuperPoint_Random,lost_43,"[[14508,-13444,-3192],[14302,-13854,-3208],[14692,-14048,-3200],[14976,-13679,-3184],[14777,-13323,-3176],[14693,-13590,-3192]]"
lost_44,MoveSuperPoint_Random,lost_44,"[[14404,-12804,-3152],[14687,-13177,-3160],[14792,-13016,-3152],[14743,-12752,-3144],[14564,-13059,-3152]]"
lost_45,MoveSuperPoint_Random,lost_45,"[[13296,-12980,-3088],[13243,-12371,-2984],[13774,-11919,-2912],[13988,-11540,-2936],[14134,-12048,-3016],[13661,-12332,-3032],[13687,-12634,-3080]]"
lost_46,MoveSuperPoint_Random,lost_46,"[[14444,-11956,-3040],[13957,-11793,-2928],[14046,-11401,-3056],[14291,-11100,-3240],[15007,-11401,-3184],[14385,-11391,-3168],[14291,-11718,-3000],[14639,-11840,-3064]]"
lost_47,MoveSuperPoint_Random,lost_47,"[[14444,-12244,-3072],[14673,-11813,-3080],[14981,-11905,-3056],[15193,-12245,-3080],[15067,-12480,-3120],[14929,-12185,-3088],[14713,-12320,-3112]]"
lost_48,MoveSuperPoint_Random,lost_48,"[[14876,-13252,-3168],[15047,-13530,-3184],[14622,-13249,-3160],[14657,-12889,-3152],[15149,-13110,-3160],[15257,-13397,-3176]]"
lost_49,MoveSuperPoint_Random,lost_49,"[[15260,-12772,-3152],[15148,-13095,-3160],[15094,-13379,-3176],[15229,-13636,-3184],[15468,-13409,-3176],[15290,-13234,-3168],[15345,-13014,-3160],[15205,-12981,-3152]]"
lost_50,MoveSuperPoint_Random,lost_50,"[[15420,-13732,-3176],[15464,-13109,-3168],[16007,-12811,-3144],[16312,-13144,-3144],[16186,-13704,-3184],[15818,-13446,-3184]]"
lost_51,MoveSuperPoint_Random,lost_51,"[[15980,-13380,-3184],[15723,-13810,-3176],[15760,-14410,-3160],[16434,-14637,-3176],[16951,-14394,-3168],[17053,-13807,-3144],[16719,-13499,-3144]]"
lost_52,MoveSuperPoint_Random,lost_52,"[[16092,-13332,-3176],[16774,-13812,-3152],[17266,-13403,-3136],[16972,-12765,-3112],[16856,-13293,-3136],[16208,-12873,-3136]]"
lost_53,MoveSuperPoint_Random,lost_53,"[[16796,-12484,-3112],[16826,-11980,-3152],[17523,-11924,-3120],[17684,-12848,-3120],[17083,-13234,-3128],[17233,-12484,-3112]]"
lost_54,MoveSuperPoint_Random,lost_54,"[[17820,-13588,-3112],[17295,-14032,-3144],[16778,-13953,-3168],[17363,-12688,-3120],[17833,-13014,-3120],[17387,-13255,-3128]]"
lost_55,MoveSuperPoint_Random,lost_55,"[[18940,-13956,-3016],[18481,-14401,-2992],[18412,-14767,-3008],[18920,-14994,-3048],[19299,-14656,-3008],[19289,-14250,-2968],[18895,-14436,-2976]]"
lost_56,MoveSuperPoint_Random,lost_56,"[[19904,-14040,-2960],[19214,-14116,-2976],[19174,-14446,-2976],[19398,-14831,-3024],[19746,-14709,-3008],[19635,-14362,-2976]]"
lost_57,MoveSuperPoint_Random,lost_57,"[[20892,-14308,-3048],[20617,-14020,-2992],[20858,-13524,-2944],[21125,-13833,-3072],[20468,-14269,-2984],[21014,-14673,-3056],[20641,-14959,-3048]]"
lost_58,MoveSuperPoint_Random,lost_58,"[[22236,-14132,-3120],[22748,-14444,-3088],[22602,-14874,-3056],[21972,-14853,-3064],[21690,-14546,-3088],[22301,-14478,-3088]]"
lost_59,MoveSuperPoint_Random,lost_59,"[[21760,-14056,-3128],[21987,-14372,-3096],[21738,-14887,-3064],[21270,-14922,-3056],[21165,-14428,-3080],[21526,-14486,-3088],[21654,-13364,-3112]]"
lost_60,MoveSuperPoint_Random,lost_60,"[[25292,-12884,-2552],[26023,-12226,-2528],[25631,-11546,-2496],[25074,-12044,-2528],[25610,-12286,-2552],[25108,-12388,-2536]]"
lost_61,MoveSuperPoint_Random,lost_61,"[[26028,-11860,-2504],[25892,-12513,-2552],[26648,-12479,-2488],[26991,-11802,-2432],[26729,-11319,-2448],[26506,-12088,-2480]]"
lost_62,MoveSuperPoint_Random,lost_62,"[[27148,-11204,-2400],[26966,-10584,-2408],[26180,-10780,-2464],[26367,-11535,-2480],[27000,-11565,-2416],[26685,-11087,-2456]]"
lost_63,MoveSuperPoint_Random,lost_63,"[[27708,-12676,-2288],[27973,-12362,-2288],[27629,-11835,-2312],[27201,-11595,-2392],[26736,-11839,-2464],[27021,-12424,-2384],[27336,-12125,-2376],[27412,-12406,-2344]]"
lost_64,MoveSuperPoint_Random,lost_64,"[[27068,-12740,-2360],[26930,-12440,-2400],[27198,-12124,-2392],[27674,-12402,-2312],[27613,-12986,-2280],[27299,-12511,-2352]]"
lost_65,MoveSuperPoint_Random,lost_65,"[[26348,-12900,-2504],[26467,-13423,-2384],[26927,-13358,-2328],[27247,-12938,-2320],[26845,-12470,-2440],[26734,-12967,-2384]]"
lost_66,MoveSuperPoint_Random,lost_66,"[[26172,-10532,-2456],[26494,-10969,-2464],[26232,-11484,-2488],[25640,-11265,-2480],[25695,-10721,-2464],[26011,-11050,-2472]]"
lost_67,MoveSuperPoint_Random,lost_67,"[[25084,-10516,-2488],[25367,-10187,-2448],[25923,-10500,-2464],[25744,-11444,-2480],[25152,-11442,-2496],[25377,-10913,-2480]]"
lost_68,MoveSuperPoint_Random,lost_68,"[[24220,-10580,-2536],[24701,-10115,-2472],[25204,-10735,-2496],[24828,-11588,-2528],[24291,-11409,-2544],[24646,-10808,-2528]]"
lost_69,MoveSuperPoint_Random,lost_69,"[[24300,-12260,-2520],[24109,-11614,-2536],[24812,-11299,-2536],[25382,-11664,-2504],[25194,-12212,-2536],[24861,-11909,-2528]]"
lost_70,MoveSuperPoint_Random,lost_70,"[[24556,-12388,-2520],[24403,-12930,-2480],[24193,-12950,-2488],[24402,-12375,-2520],[24562,-12642,-2504],[24279,-12741,-2496]]"
lost_71,MoveSuperPoint_FollowRail,lost_71,"[[23600,-11704,-2528],[23496,-11412,-2552],[24296,-11642,-2536],[24377,-11948,-2536],[23906,-11699,-2528]]"
lost_72,MoveSuperPoint_Random,lost_72,"[[23868,-10804,-2584],[24326,-10729,-2536],[24217,-10120,-2512],[23293,-10090,-2640],[22829,-10595,-2688],[23806,-10350,-2584]]"
lost_73,MoveSuperPoint_Random,lost_73,"[[22732,-11316,-2672],[23251,-11154,-2648],[23061,-10165,-2664],[22540,-10152,-2736],[22820,-10983,-2672],[23989,-10966,-2584]]"
lost_74,MoveSuperPoint_Random,lost_74,"[[22672,-9468,-2712],[22921,-9975,-2688],[22260,-10661,-2776],[21553,-10215,-2816],[21952,-9568,-2792],[22147,-10103,-2784]]"
lost_75,MoveSuperPoint_Random,lost_75,"[[22140,-11940,-2648],[22744,-11662,-2664],[22645,-10895,-2688],[21724,-11239,-2760],[22277,-11493,-2688],[21552,-11781,-2720]]"
lost_76,MoveSuperPoint_Random,lost_76,"[[21340,-11092,-2784],[21661,-11549,-2744],[22158,-10939,-2760],[21791,-10137,-2808],[21029,-9777,-2848],[20628,-10780,-2824],[20961,-11761,-2776]]"
lost_77,MoveSuperPoint_Random,lost_77,"[[21068,-11700,-2768],[20900,-12446,-2728],[19865,-11852,-2784],[20372,-10947,-2832],[20871,-10822,-2824],[20482,-11426,-2824]]"
lost_78,MoveSuperPoint_Random,lost_78,"[[21324,-8836,-2760],[21454,-9510,-2792],[21135,-10012,-2848],[20339,-9589,-2832],[20276,-8878,-2760],[20756,-8534,-2712],[20642,-9246,-2800]]"
lost_79,MoveSuperPoint_Random,lost_79,"[[19836,-8884,-2736],[19275,-9312,-2752],[19542,-10053,-2840],[20037,-10471,-2832],[20688,-9525,-2840],[19894,-9470,-2800]]"
lost_80,MoveSuperPoint_Random,lost_80,"[[18684,-11444,-2920],[19031,-10585,-2800],[19369,-10373,-2816],[20017,-10903,-2832],[19841,-11684,-2800],[19175,-11788,-2768],[19266,-11153,-2856]]"
lost_81,MoveSuperPoint_Random,lost_81,"[[19292,-10868,-2872],[19477,-10235,-2824],[19958,-10188,-2832],[20347,-10620,-2832],[19886,-10557,-2832],[19916,-11127,-2832]]"
lost_82,MoveSuperPoint_Random,lost_82,"[[18812,-9476,-2752],[19480,-8804,-2704],[19952,-9071,-2776],[19965,-9741,-2840],[19350,-10029,-2832],[19554,-9369,-2784]]"
lost_83,MoveSuperPoint_Random,lost_83,"[[16172,-11508,-3232],[16667,-11487,-3192],[16320,-10556,-3288],[15451,-11430,-3192],[15224,-10360,-3304],[15660,-9943,-3272]]"
lost_84,MoveSuperPoint_Random,lost_84,"[[14732,-11044,-3248],[15653,-10939,-3288],[16103,-9990,-3288],[15260,-9315,-3264],[14012,-9574,-3232],[14667,-9818,-3280],[15123,-10594,-3304]]"
lost_85,MoveSuperPoint_Random,lost_85,"[[16908,-9940,-3224],[16554,-10619,-3264],[15647,-10383,-3304],[15338,-9561,-3264],[15800,-8980,-3264],[16644,-9294,-3248],[15977,-9882,-3272]]"
lost_86,MoveSuperPoint_Random,lost_86,"[[16316,-8436,-3256],[16867,-9092,-3224],[15866,-9459,-3256],[15094,-9050,-3272],[15188,-8033,-3184],[15678,-8487,-3256]]"
lost_87,MoveSuperPoint_Random,lost_87,"[[15276,-7764,-3160],[16389,-8070,-3232],[16165,-8626,-3264],[15353,-8810,-3264],[14903,-8569,-3248],[15517,-8220,-3224]]"
tyrano_sp_new,MoveSuperPoint_FollowRail,tyrano_sp_new,"[[21008,-14568,-3064],[22558,-14534,-3080],[23642,-15288,-2992],[22999,-16906,-2984],[21900,-17852,-2912],[22008,-19227,-2920],[21840,-20364,-3032],[21016,-20954,-3104],[19517,-19405,-3328],[18852,-18678,-3272],[17811,-17972,-3216],[17562,-15985,-3184],[16742,-14016,-3168],[17147,-12015,-3136],[18101,-11656,-3048],[18941,-11183,-2880],[20213,-10652,-2840],[21890,-10955,-2776],[22661,-11502,-2672],[21930,-12466,-2720],[21004,-13335,-2920],[20505,-13970,-2968],[20690,-14419,-3024]]"
tetrarch_exec_kreed,MoveSuperPoint_FollowRail,tetrarch_exec_kreed,"[[23436,11164,-3720],[20256,11104,-3720],[17330,13579,-3728],[17415,13044,-3736],[20153,12880,-3712],[21621,13349,-3624],[20686,10432,-3712],[22426,10260,-3648],[23436,11164,-3720]]"
tetrarch_agent_alhena,MoveSuperPoint_FollowRail,tetrarch_agent_alhena,"[[10968,14620,-4240],[11308,15847,-4584],[12119,16441,-4584],[15104,15661,-4376],[15265,16288,-4376],[12292,16934,-4584],[11777,17669,-4584],[11229,17650,-4568],[10641,17282,-4584],[7683,18034,-4376],[10551,16775,-4584],[11004,15942,-4584],[10827,14757,-4240],[10968,14620,-4240]]"
di_ore_fort_ordery,MoveSuperPoint_FollowRail,di_ore_fort_ordery,"[[9223,91987,-3600],[9154,91264,-3624],[9205,90077,-3576],[11509,90095,-3720],[13271,90000,-3840],[14819,89579,-3832],[14440,90671,-3680],[14243,91676,-3656],[13632,92356,-3480]]"
glu_di_fort_ordery,MoveSuperPoint_FollowRail,glu_di_fort_ordery,"[[11852,150524,-3320],[14026,149960,-3352],[15873,150250,-3256],[17991,151155,-3272],[18425,152567,-3368],[18407,154775,-3616],[17647,156893,-3664],[12276,153916,-2696]]"
dion_fort_ordery,MoveSuperPoint_FollowRail,dion_fort_ordery,"[[19381,189418,-3128],[19726,188581,-3328],[20007,187939,-3408],[19833,187182,-3464],[19204,186292,-3544],[18913,185131,-3536],[18426,184133,-3600],[18466,183294,-3640],[17758,181944,-3672],[16498,181642,-3616],[15696,182527,-3616],[15311,182798,-3568],[15238,184486,-3120]]"
castletownguard01,MoveSuperPoint_Random,castletownguard01,"[[14840,251949,-1992],[14679,253399,-2016]]"
castletownguard02,MoveSuperPoint_Random,castletownguard02,"[[16082,251790,-1992],[16388,252456,-2000],[16093,254443,-2064]]"
castletownguard03,MoveSuperPoint_Random,castletownguard03,"[[16524,255244,-2072],[17211,256290,-2064],[18805,256302,-2088]]"
castletownguard04,MoveSuperPoint_Random,castletownguard04,"[[17670,252256,-2016],[17344,251070,-1952],[18708,250659,-1992],[19533,250667,-2016]]"
malign_conveyor_1_1,MoveSuperPoint_FollowRail,malign_conveyor_1_1,"[[27886,248609,-3208],[28274,247756,-3272],[27340,246649,-3680],[27650,245915,-3688],[28065,245910,-3696]]"
malign_conveyor_1_2,MoveSuperPoint_FollowRail,malign_conveyor_1_2,"[[26144,246444,-3208],[28063,247940,-3248],[28276,247756,-3272],[27344,246649,-3680],[27652,245914,-3688],[28064,245910,-3696]]"
malign_conveyor_1_3,MoveSuperPoint_FollowRail,malign_conveyor_1_3,"[[27336,246216,-3656],[27645,245909,-3672],[28066,245909,-3696]]"
malign_conveyor_2_1,MoveSuperPoint_FollowRail,malign_conveyor_2_1,"[[28684,244119,-3696],[28495,243839,-3696],[28727,242939,-3592],[28188,242512,-3464],[27248,242797,-3168],[26850,243834,-2896],[24636,246593,-1968],[24519,248586,-1936],[23094,250031,-1976],[22673,251605,-1992],[24560,254414,-1984],[25392,255459,-1992]]"
malign_conveyor_1_4,MoveSuperPoint_FollowRail,malign_conveyor_1_4,"[[28476,245914,-3696],[29058,245894,-3672],[29433,245216,-3688],[28942,244492,-3696]]"
ruin_prophet_rune,MoveSuperPoint_FollowRail,ruin_prophet_rune,"[[43381,-46796,-800],[43302,-47413,-792],[43511,-48083,-792],[45208,-47955,-792],[45902,-48181,-792],[45203,-47980,-792],[43531,-48109,-792],[43319,-47412,-792],[43388,-46821,-800]]"
rune_ghost1b,MoveSuperPoint_FollowRail,rune_ghost1b,"[[51752,-54736,-3160],[51998,-54685,-3160],[52083,-54439,-3152],[52296,-53194,-3152],[51891,-51628,-3096]]"
bard_casiel,MoveSuperPoint_FollowRail,bard_casiel,"[[43932,51096,-2992],[43304,50364,-2992],[43041,49312,-2992],[43612,48322,-2992],[44009,47645,-2992],[45309,47341,-2992],[46726,47762,-2992],[47509,49004,-2992],[47443,50456,-2992],[47013,51287,-2992]]"
treekeeper_jaradine,MoveSuperPoint_FollowRail,treekeeper_jaradine,"[[44964,50568,-3056],[44435,50025,-3056],[44455,49078,-3056],[45402,48437,-3056],[46104,48788,-3056],[46452,49743,-3056],[45730,50590,-3056]]"
di_gi_fort_ordery,MoveSuperPoint_FollowRail,di_gi_fort_ordery,"[[54580,137296,-2608],[55746,136704,-2560],[57086,135489,-2832],[58158,134449,-3016],[59356,134196,-3160],[60681,134023,-3392],[62368,134575,-3568],[63787,134843,-3664],[64812,135001,-3736],[64623,137918,-3552],[64323,139337,-3200],[63882,140440,-2808],[63251,141197,-2456],[63030,142112,-2184]]"
running_boy,MoveSuperPoint_FollowRail,running_boy,"[[84416,-144052,-1528],[84460,-142495,-1536],[85242,-140949,-1536],[87362,-140059,-1536],[89350,-140750,-1536],[90607,-143176,-1536],[90267,-143883,-1536]]"
ru_sch_fort_ordery,MoveSuperPoint_FollowRail,ru_sch_fort_ordery,"[[70364,-90484,-1912],[70947,-89557,-2288],[71067,-89115,-2368],[71845,-89690,-2304],[72665,-90707,-2208],[73464,-91450,-2040],[74530,-92193,-1776],[74883,-93093,-1536]]"
rune_fort_ordery,MoveSuperPoint_FollowRail,rune_fort_ordery,"[[72172,-57044,-3096],[72762,-56641,-3104],[73234,-56119,-3120],[74153,-55297,-3120],[73190,-54615,-3120],[72185,-53254,-3104],[71689,-52675,-3088],[70188,-52530,-3064],[69588,-52830,-3080],[68294,-52437,-3248],[67596,-53787,-3224],[67026,-54941,-3040]]"
oren_fort_ordery,MoveSuperPoint_FollowRail,oren_fort_ordery,"[[75292,1371,-3264],[76983,1332,-3608],[77052,2180,-3648],[77381,2848,-3528],[79315,4752,-3088],[76543,9248,-3568],[75267,8989,-3576],[72585,8301,-3280],[71834,7536,-3176]]"
cooker_01,MoveSuperPoint_FollowRail,cooker_01,"[[85852,53212,-3616],[85784,54318,-3656],[86700,53997,-3704],[87247,54543,-3664],[88276,54177,-3592],[89010,53965,-3712],[89927,54158,-3760],[90617,54181,-3776],[91307,54978,-3760]]"
cooker_02,MoveSuperPoint_FollowRail,cooker_02,"[[93964,55692,-3448],[94331,54730,-3584],[93996,54368,-3616],[92737,54582,-3680],[91706,54882,-3744],[91802,55645,-3640],[91856,56676,-3560],[91250,57717,-3712]]"
cooker_03,MoveSuperPoint_FollowRail,cooker_03,"[[87612,59356,-3552],[87983,60373,-3568],[88400,60721,-3632],[89356,60245,-3664],[90113,60676,-3640],[91039,59913,-3624],[92003,59891,-3512],[93427,59897,-3304],[92264,60290,-3416],[90908,60194,-3600],[90022,59866,-3664],[88763,59981,-3584],[87973,59606,-3544]]"
cooker_04,MoveSuperPoint_FollowRail,cooker_04,"[[83724,62668,-3472],[84481,63039,-3584],[85686,63039,-3624],[86456,62650,-3680],[86541,61649,-3616],[87316,61481,-3656]]"
cooker_05,MoveSuperPoint_FollowRail,cooker_05,"[[88414,60269,-3584],[87392,61105,-3624],[86641,60498,-3512],[87041,59519,-3560],[87392,59178,-3568],[88928,58482,-3600],[90024,58625,-3696],[90751,58530,-3776],[90864,58105,-3784],[91142,57830,-3728]]"
cooker_06,MoveSuperPoint_FollowRail,cooker_06,"[[93003,60829,-3288],[93151,61645,-3240],[93396,62173,-3264],[93482,62952,-3288],[93220,63970,-3344],[92011,64645,-3552],[91523,65189,-3592],[89794,65217,-3696],[88061,65221,-3720],[87874,64692,-3720],[87268,64452,-3688],[86626,64932,-3624]]"
cooker_07,MoveSuperPoint_FollowRail,cooker_07,"[[78299,63418,-3640],[78954,63736,-3608],[79261,64127,-3520],[79116,65254,-3304],[80633,65067,-3312],[81543,64971,-3304],[81686,63847,-3576],[82419,63803,-3584],[83303,63956,-3568],[83909,63288,-3584],[85313,63532,-3688],[85934,64586,-3624]]"
ore_gi_fort_ordery,MoveSuperPoint_FollowRail,ore_gi_fort_ordery,"[[80966,93990,-3152],[81471,93692,-3256],[82631,92393,-3472],[84648,91353,-3520],[85612,89739,-3280],[83768,88400,-3368],[81529,86517,-3408],[80952,85862,-3456],[79186,85996,-3584],[78232,85707,-3624],[78087,86850,-3480]]"
cooker_08,MoveSuperPoint_FollowRail,cooker_08,"[[77836,68796,-3128],[77952,69548,-3104],[78542,69872,-3168],[79217,69409,-3304],[79631,68953,-3328],[80095,69341,-3384],[80580,68675,-3448],[80727,67863,-3432],[80814,67024,-3336],[80969,65938,-3384]]"
cooker_10,MoveSuperPoint_FollowRail,cooker_10,"[[83404,65772,-3008],[83628,66134,-3040],[84063,65811,-3120],[84207,65824,-3144],[84734,65775,-3192],[85283,65785,-3232],[85844,66115,-3320],[86717,65767,-3576],[88177,65717,-3720]]"
cooker_09,MoveSuperPoint_FollowRail,cooker_09,"[[82814,69481,-3144],[82511,69978,-3248],[81673,69838,-3344],[81093,69358,-3416],[80717,68694,-3456],[80833,67874,-3464],[80919,67155,-3344],[81031,65924,-3368]]"
cooker_12,MoveSuperPoint_FollowRail,cooker_12,"[[91175,67623,-3600],[90262,67363,-3696],[90728,67107,-3664],[91691,67350,-3648],[91887,67899,-3592],[91361,68357,-3528],[90819,68215,-3576],[89917,68377,-3656],[89729,69095,-3544],[89650,69423,-3424],[88984,69696,-3344],[88304,68934,-3176],[87836,68764,-3128],[87395,69400,-3064],[86668,69430,-3064],[86021,69459,-3064],[85756,69104,-3064],[85754,67820,-3064],[86077,67588,-3064],[86583,67761,-3064],[87013,67662,-3080]]"
cooker_11,MoveSuperPoint_FollowRail,cooker_11,"[[96509,69432,-3408],[95946,68585,-3312],[95048,67999,-3368],[93761,67814,-3664],[92630,68476,-3592],[92470,69681,-3544],[91097,69733,-3464],[89924,69635,-3424],[88426,69990,-3280],[88703,70364,-3360],[90536,70604,-3536],[91465,70366,-3488],[92535,70719,-3576],[93792,71118,-3616],[93945,70377,-3664],[93233,69035,-3608],[94122,68262,-3640],[94966,68297,-3424]]"
dragonvalley_22_21_01_01event,MoveSuperPoint_FollowRail,dragonvalley_22_21_01_01event,"[[90737,106363,-3104],[90524,106650,-3144],[90496,106913,-3128],[90737,107344,-3104],[91274,107553,-3056],[91812,107715,-3056],[92228,107718,-3032],[92863,107632,-3008],[93416,107596,-3008],[94176,107581,-3024],[94865,107658,-3048],[95431,107742,-3096],[95928,107962,-3160],[96411,108545,-3328],[96855,108958,-3480],[97088,109292,-3624],[96982,109625,-3696],[96552,110089,-3696],[96110,110172,-3664],[95731,109993,-3648],[95107,109864,-3664],[94636,109801,-3696],[93718,109662,-3672],[93130,109575,-3696],[92509,109390,-3776],[92041,109427,-3808],[91668,109497,-3768]]"
dragonvalley_22_21_01_02event,MoveSuperPoint_FollowRail,dragonvalley_22_21_01_02event,"[[90731,106491,-3104],[90584,106686,-3144],[90568,107013,-3128],[90821,107476,-3088],[91358,107653,-3056],[91896,107815,-3048],[92404,107686,-3032],[92947,107660,-3040],[93580,107648,-3024],[94272,107725,-3016],[94949,107730,-3056],[95515,107794,-3104],[96012,108006,-3176],[96495,108601,-3328],[96939,109058,-3528],[97172,109392,-3656],[97066,109725,-3704],[96636,110161,-3696],[96194,110340,-3720],[95815,110153,-3664],[95191,109980,-3680],[94584,109705,-3696],[93562,109738,-3664],[93170,109639,-3696],[92589,109490,-3752],[92125,109527,-3800],[91752,109597,-3760]]"
dragonvalley_22_21_01_03event,MoveSuperPoint_FollowRail,dragonvalley_22_21_01_03event,"[[90681,106284,-3128],[90472,106506,-3168],[90408,106861,-3160],[90721,107256,-3104],[91246,107473,-3072],[91784,107635,-3040],[92292,107638,-3008],[92835,107560,-3008],[93468,107560,-3008],[94196,107657,-3016],[94837,107598,-3040],[95403,107698,-3096],[95900,107898,-3144],[96383,108397,-3288],[96827,108878,-3448],[96916,109144,-3568],[96954,109545,-3672],[96524,109981,-3640],[96082,110096,-3664],[95703,109913,-3648],[95079,109784,-3680],[94608,109633,-3688],[93786,109558,-3672],[93058,109487,-3720],[92481,109310,-3792],[92013,109347,-3808],[91640,109417,-3768]]"
dragonvalley_22_21_01_04event,MoveSuperPoint_FollowRail,dragonvalley_22_21_01_04event,"[[91612,109648,-3760],[92049,109568,-3808],[92467,109554,-3768],[92877,109614,-3720],[93378,109734,-3672],[94287,109728,-3688],[95081,109820,-3680],[95552,109956,-3640],[96066,110197,-3664],[96622,110252,-3720],[96945,109905,-3720],[97114,109449,-3664],[96968,109007,-3504],[96685,108732,-3400],[96376,108392,-3288],[96120,108109,-3192],[95820,107788,-3120],[95574,107688,-3088],[95041,107664,-3056],[94428,107588,-3032],[93862,107637,-3024],[93102,107595,-3008],[92343,107667,-3032],[91736,107666,-3056],[91261,107511,-3072],[90805,107318,-3096],[90632,107189,-3104],[90481,107001,-3152],[90464,106772,-3160],[90529,106535,-3160],[90911,106187,-3080]]"
dragonvalley_22_21_01_05event,MoveSuperPoint_FollowRail,dragonvalley_22_21_01_05event,"[[91612,109732,-3760],[92081,109692,-3784],[92467,109638,-3760],[92877,109698,-3712],[93378,109818,-3664],[94287,109812,-3688],[95081,109904,-3680],[95552,110040,-3640],[96066,110281,-3704],[96622,110336,-3720],[96945,109989,-3720],[97186,109425,-3664],[96968,109091,-3544],[96685,108816,-3432],[96376,108476,-3312],[96120,108161,-3192],[95820,107872,-3120],[95574,107772,-3112],[95041,107748,-3056],[94428,107732,-3024],[93862,107685,-3016],[93102,107703,-3032],[92343,107703,-3024],[91736,107750,-3056],[91261,107595,-3064],[90805,107402,-3088],[90632,107273,-3104],[90481,107085,-3144],[90464,106856,-3160],[90529,106619,-3160],[90831,106319,-3088]]"
dragonvalley_22_21_01_06event,MoveSuperPoint_FollowRail,dragonvalley_22_21_01_06event,"[[91612,109544,-3744],[92081,109504,-3808],[92467,109450,-3768],[92877,109510,-3728],[93378,109630,-3680],[94287,109624,-3688],[95081,109716,-3680],[95552,109884,-3632],[96066,110097,-3664],[96622,110148,-3696],[96945,109801,-3704],[97162,109433,-3664],[96968,109207,-3592],[96685,108884,-3456],[96376,108520,-3320],[96120,108213,-3208],[95820,107920,-3128],[95574,107844,-3104],[95041,107808,-3064],[94428,107644,-3032],[93974,107565,-3016],[93102,107675,-3032],[92343,107603,-3008],[91736,107562,-3056],[91261,107407,-3072],[90805,107214,-3096],[90632,107085,-3104],[90481,106897,-3152],[90464,106668,-3160],[90529,106431,-3160],[90851,106111,-3104]]"
dragonvalley_22_21_02_01event,MoveSuperPoint_FollowRail,dragonvalley_22_21_02_01event,"[[93112,111824,-2984],[93230,112062,-2968],[93604,112918,-3056],[93912,113759,-3120],[94147,114588,-3072],[94330,115005,-3128],[94733,115410,-3104],[95038,115987,-3056],[94883,116774,-3056],[94468,117539,-3032],[93760,118146,-3008],[93033,118565,-3008],[92263,118660,-3040],[91298,118824,-3048],[90689,119591,-3040],[90595,120335,-3016],[90579,120571,-3024]]"
dragonvalley_22_21_02_02event,MoveSuperPoint_FollowRail,dragonvalley_22_21_02_02event,"[[93464,112052,-2968],[93586,112286,-3008],[93920,112926,-3056],[93996,113571,-3104],[94011,114096,-3104],[94106,114649,-3072],[94909,115398,-3080],[95138,115987,-3032],[95019,116774,-3056],[94628,117539,-3040],[93920,118146,-2992],[93193,118529,-2992],[92423,118548,-3024],[91458,118920,-3016],[90849,119591,-3024],[90755,120335,-2992],[90739,120567,-3000]]"
dragonvalley_22_21_02_03event,MoveSuperPoint_FollowRail,dragonvalley_22_21_02_03event,"[[93328,111952,-2968],[93490,112274,-3000],[93708,112782,-3056],[93752,113399,-3096],[93879,113984,-3136],[94078,114685,-3088],[94453,115042,-3112],[94890,115879,-3056],[94763,116754,-3048],[94372,117431,-3008],[93664,118106,-3024],[92937,118457,-3016],[92167,118440,-3056],[91202,118716,-3056],[90593,119483,-3056],[90499,120227,-3016],[90483,120583,-3008]]"
dragonvalley_22_21_02_04event,MoveSuperPoint_FollowRail,dragonvalley_22_21_02_04event,"[[90620,120748,-2976],[90737,119749,-3016],[91132,119172,-3040],[91560,118646,-3056],[92114,118535,-3056],[92635,118519,-3032],[93443,118273,-3008],[94179,117709,-2992],[94743,117081,-3048],[95013,116285,-3056],[94777,115443,-3096],[94444,115030,-3112],[94006,114657,-3088],[94021,114265,-3088],[94004,113684,-3112],[93853,113116,-3064],[93588,112544,-3040],[93418,112132,-2976],[93256,111875,-2968]]"
dragonvalley_22_21_02_05event,MoveSuperPoint_FollowRail,dragonvalley_22_21_02_05event,"[[90804,120748,-2968],[90921,119765,-3000],[91316,119172,-3000],[91744,118646,-3056],[92298,118627,-3040],[92819,118539,-3016],[93627,118273,-3000],[94363,117709,-3024],[94863,117041,-3056],[95125,116285,-3056],[94933,115455,-3072],[94488,114986,-3104],[94142,114669,-3072],[93989,114285,-3088],[93928,113684,-3120],[93957,113116,-3056],[93688,112540,-3040],[93502,112256,-3000],[93408,112067,-2968]]"
dragonvalley_22_21_02_06event,MoveSuperPoint_FollowRail,dragonvalley_22_21_02_06event,"[[90468,120696,-3008],[90585,119697,-3040],[90980,119120,-3056],[91408,118594,-3056],[91978,118503,-3056],[92483,118467,-3040],[93291,118221,-3024],[94027,117733,-2968],[94591,117149,-3000],[94929,116293,-3056],[94685,115507,-3096],[94384,115038,-3112],[94070,114641,-3088],[93893,114233,-3104],[93872,113632,-3112],[93749,113064,-3064],[93440,112384,-3024],[93334,112128,-2976],[93184,111855,-2968]]"
2221_44,MoveSuperPoint_FollowRail,2221_44,"[[80892,109452,-3056],[81895,109326,-3112],[83264,108801,-3096],[86112,107618,-3192]]"
2221_46,MoveSuperPoint_FollowRail,2221_46,"[[86716,108236,-3120],[85003,108727,-3200],[80733,109807,-3056]]"
2221_25,MoveSuperPoint_FollowRail,2221_25,"[[81661,114385,-3320],[81905,114135,-3232],[82366,113725,-3096],[82392,113108,-3048],[83346,112987,-3048],[84190,112573,-3048],[84932,111924,-3096],[86098,111684,-3112]]"
2221_21,MoveSuperPoint_FollowRail,2221_21,"[[88268,112044,-3272],[87316,112086,-3288],[86082,111866,-3112],[84342,112220,-3040],[82579,113287,-3056]]"
2221_05,MoveSuperPoint_FollowRail,2221_05,"[[83436,119240,-2984],[84443,120446,-2960],[85633,120687,-3016],[86980,120934,-3040],[88200,120082,-3056],[88343,119201,-3056]]"
2221_08,MoveSuperPoint_FollowRail,2221_08,"[[88316,120508,-3056],[87222,120466,-3048],[85940,119897,-2992],[84982,118441,-3032],[83970,117984,-2984],[82966,117722,-3032]]"
2221_47,MoveSuperPoint_FollowRail,2221_47,"[[88040,106648,-3168],[88526,107853,-3056],[89602,108262,-3032],[90440,107955,-3056],[91697,108141,-3040]]"
2221_50,MoveSuperPoint_FollowRail,2221_50,"[[94092,107564,-3024],[91246,107748,-3056],[89123,106549,-3200]]"
ruin_prophet_giran,MoveSuperPoint_FollowRail,ruin_prophet_giran,"[[83510,148636,-3400],[83679,147701,-3400],[84858,147764,-3400],[83623,147705,-3400],[83626,149551,-3400],[83839,149549,-3400]]"
inna_gi_fort_ordery,MoveSuperPoint_FollowRail,inna_gi_fort_ordery,"[[69726,187330,-3000],[70022,188065,-3040],[69396,190303,-3040],[69543,190975,-3016],[70583,190927,-2904],[71304,190486,-2848],[73775,190413,-2856]]"
messenger_rogin,MoveSuperPoint_FollowRail,messenger_rogin,"[[115744,-183424,-1472],[115878,-183267,-1472],[116116,-183090,-1496],[116587,-184306,-1568],[116392,-184090,-1560],[117083,-182538,-1520],[117802,-182541,-1528],[116720,-182479,-1512],[115857,-183287,-1472],[115744,-183424,-1472]]"
porter_tate,MoveSuperPoint_FollowRail,porter_tate,"[[115824,-181564,-1336],[116048,-181575,-1352],[116521,-181476,-1384],[116632,-180022,-1160],[115355,-178617,-928],[115763,-177585,-888],[115795,-177361,-880],[115877,-177338,-880],[115783,-177493,-880],[115112,-179836,-880],[115102,-180026,-872],[114876,-180045,-872],[114840,-179694,-872],[116322,-179602,-1088],[116792,-180386,-1200],[116319,-181573,-1384],[115824,-181564,-1336]]"
schutt_fort_ordery,MoveSuperPoint_FollowRail,schutt_fort_ordery,"[[104796,-142532,-3656],[106061,-142713,-3656],[106903,-143941,-3656],[107632,-144207,-3656],[108091,-144886,-3656],[109432,-145150,-3656],[110041,-146137,-3456],[110188,-147421,-3096],[112181,-147759,-3264]]"
IceQueen_2F_Left,MoveSuperPoint_FollowRail,IceQueen_2F_Left,"[[113113,-115512,-10984],[113187,-115623,-10984],[114010,-116444,-10984],[114076,-116506,-11024],[114094,-116527,-11040],[114146,-116578,-11080],[114713,-116765,-11080],[114717,-116650,-11080],[114713,-116359,-11192],[114575,-114932,-11200]]"
IceQueen_2F_Right,MoveSuperPoint_FollowRail,IceQueen_2F_Right,"[[116353,-115466,-10984],[116253,-115624,-10984],[115433,-116448,-10984],[115371,-116515,-11032],[115349,-116534,-11040],[115299,-116576,-11064],[114715,-116762,-11080],[114722,-116648,-11080],[114724,-116347,-11200],[114805,-114936,-11200]]"
ru_go_fort_ordery,MoveSuperPoint_FollowRail,ru_go_fort_ordery,"[[104686,-57581,-936],[105438,-58455,-1112],[105569,-58872,-1224],[106186,-59265,-1328],[106866,-59434,-1624],[107457,-60476,-2136],[107688,-61206,-2424],[108320,-61927,-2952],[109008,-62615,-3232],[108345,-62690,-3120],[106944,-62153,-2984],[105330,-61391,-2680],[103592,-60301,-2392],[102979,-59855,-2384],[101453,-59964,-2544]]"
a_o_g_fort_ordery,MoveSuperPoint_FollowRail,a_o_g_fort_ordery,"[[113798,-18726,-1744],[115914,-19179,-2120],[117146,-19776,-2416],[118427,-20137,-2632],[118906,-20010,-2720],[118554,-19648,-2560],[117205,-18328,-1816]]"
aden_gi_fort_ordery,MoveSuperPoint_FollowRail,aden_gi_fort_ordery,"[[122585,92342,-2328],[126172,91911,-2216],[126351,90443,-2296],[125800,87722,-2432],[124807,85973,-2464],[125042,83830,-2376],[128870,83331,-1424],[129686,84961,-1256],[126289,86714,-2240],[126827,90817,-2248]]"
dragonvalley_2321_01_01event,MoveSuperPoint_FollowRail,dragonvalley_2321_01_01event,"[[101704,110644,-3672],[101701,111325,-3672],[101712,112314,-3680],[101491,114036,-3720],[101230,115280,-3704],[101337,116844,-3688],[102091,118065,-3664],[102437,119546,-3632],[102722,120698,-3624],[102594,121855,-3664],[102983,123031,-3648],[103456,123892,-3720],[104736,123968,-3712],[105809,123573,-3656],[107046,122694,-3672],[107951,122278,-3672],[109211,121890,-3712],[110009,121875,-3680],[110183,121815,-3688],[110486,121858,-3688]]"
dragonvalley_2321_01_02event,MoveSuperPoint_FollowRail,dragonvalley_2321_01_02event,"[[101836,110692,-3672],[101809,111329,-3680],[101876,112314,-3672],[101555,114048,-3720],[101294,114920,-3720],[101425,116844,-3696],[101971,117961,-3664],[102209,119530,-3600],[102558,120842,-3616],[102574,122127,-3640],[102779,122899,-3640],[103664,123988,-3720],[104928,124084,-3712],[106017,123573,-3656],[107254,122694,-3680],[108439,122386,-3664],[109635,122366,-3672],[110045,122171,-3664],[110483,121931,-3688]]"
dragonvalley_2321_01_03event,MoveSuperPoint_FollowRail,dragonvalley_2321_01_03event,"[[101580,110640,-3672],[101621,111273,-3672],[101668,112314,-3680],[101443,113956,-3720],[101198,115188,-3712],[101261,116844,-3688],[102191,118065,-3672],[102337,119466,-3632],[102874,120822,-3696],[102666,121855,-3672],[102651,122899,-3640],[103452,123992,-3720],[104820,124052,-3712],[105809,123625,-3656],[107158,122694,-3680],[108067,122302,-3664],[109271,121850,-3712],[110209,121743,-3688],[110411,121615,-3712]]"
dragonvalley_2321_01_04event,MoveSuperPoint_FollowRail,dragonvalley_2321_01_04event,"[[110389,121672,-3704],[110268,121714,-3704],[109936,121793,-3696],[109632,121830,-3704],[108375,122123,-3664],[107085,122971,-3688],[105820,123561,-3656],[104693,124022,-3712],[103828,124233,-3704],[103255,123922,-3704],[102820,123416,-3672],[102484,122894,-3640],[102394,122239,-3624],[102699,121544,-3696],[103066,120613,-3712],[102897,119775,-3608],[102206,118009,-3672],[101402,116732,-3696],[101189,115145,-3712],[101358,114519,-3720],[101962,112444,-3688],[101884,111206,-3680],[101891,110772,-3688]]"
dragonvalley_2321_01_05event,MoveSuperPoint_FollowRail,dragonvalley_2321_01_05event,"[[110425,121806,-3696],[110249,121847,-3688],[109976,121796,-3688],[109582,121783,-3704],[108359,122435,-3664],[107085,122767,-3672],[105820,123701,-3664],[104693,124162,-3712],[103828,124073,-3712],[103255,124062,-3712],[102820,123556,-3672],[102440,123098,-3648],[102462,122379,-3624],[102699,121684,-3680],[102842,120709,-3664],[102705,119791,-3600],[102206,118149,-3664],[101382,116872,-3688],[101205,115613,-3704],[101270,114487,-3720],[101850,112584,-3688],[101836,111346,-3680],[101775,110716,-3672]]"
dragonvalley_2321_01_06event,MoveSuperPoint_FollowRail,dragonvalley_2321_01_06event,"[[110467,121911,-3688],[110249,121981,-3680],[109976,122199,-3664],[109632,122334,-3672],[108359,122287,-3664],[107085,123111,-3704],[105820,123637,-3656],[104693,124274,-3712],[103828,124361,-3688],[103255,124174,-3720],[102820,123668,-3672],[102264,123166,-3664],[102394,122491,-3624],[102699,121796,-3672],[102950,121021,-3720],[102873,119539,-3648],[102206,118261,-3664],[101334,116848,-3688],[101233,115509,-3704],[101258,114839,-3720],[101742,112696,-3688],[101736,111330,-3672],[101775,110828,-3680]]"
dragonvalley_2321_02_01event,MoveSuperPoint_FollowRail,dragonvalley_2321_02_01event,"[[108642,112876,-3048],[108827,112841,-3048],[109701,112505,-3048],[109929,111521,-3048],[110698,111111,-3128],[111712,110450,-3040],[112779,110427,-2992],[114072,110293,-3024],[115349,110175,-3024],[116624,110409,-3000],[118523,110649,-3000],[120064,109649,-3008],[121146,108548,-2984],[122322,108190,-2976],[124432,109057,-3064],[125066,110224,-3080],[125600,110803,-3080],[125993,111017,-3040]]"
dragonvalley_2321_02_02event,MoveSuperPoint_FollowRail,dragonvalley_2321_02_02event,"[[108634,112978,-3048],[108959,112881,-3048],[109789,112393,-3048],[110173,111433,-3112],[110630,110843,-3064],[111644,110394,-3040],[112519,110195,-2976],[114004,110237,-3032],[115281,110099,-3032],[116556,110153,-3016],[118455,109993,-2952],[120080,109457,-2976],[121106,108948,-2960],[122542,107994,-2976],[124376,109197,-3104],[125170,110168,-3080],[125632,110747,-3072],[125925,110893,-3056]]"
dragonvalley_2321_02_03event,MoveSuperPoint_FollowRail,dragonvalley_2321_02_03event,"[[108611,113068,-3040],[108879,113029,-3040],[109865,112533,-3048],[109981,111617,-3072],[110926,110855,-3064],[111764,110546,-3032],[112639,110323,-2968],[114124,110389,-3032],[115401,110271,-3016],[116676,110293,-3000],[118543,109909,-2952],[120116,109853,-3040],[121158,108736,-2984],[122734,108202,-3024],[124368,109141,-3072],[125046,110320,-3096],[125636,110959,-3088],[125889,111157,-3064]]"
dragonvalley_2321_02_04event,MoveSuperPoint_FollowRail,dragonvalley_2321_02_04event,"[[125756,111164,-3088],[125318,110685,-3072],[124805,109974,-3096],[124331,109223,-3104],[124005,108964,-3048],[122523,108140,-2984],[121836,108550,-2960],[120931,109322,-2968],[120108,109340,-2960],[119009,109736,-2976],[118220,109994,-2944],[117234,110353,-2976],[116009,110070,-3032],[114167,110269,-3024],[112505,110492,-2976],[111514,110566,-3048],[110171,111234,-3120],[109970,112298,-3056],[108988,113035,-3048],[108643,112960,-3048]]"
dragonvalley_2321_02_05event,MoveSuperPoint_FollowRail,dragonvalley_2321_02_05event,"[[125784,111008,-3072],[125346,110529,-3064],[124833,109822,-3088],[124367,109067,-3072],[124033,108944,-3048],[122499,108080,-2984],[121472,108598,-2968],[120959,109006,-2976],[120136,110024,-3048],[119037,110620,-3024],[118248,110558,-2976],[117262,110197,-2952],[116049,110190,-3032],[114235,110149,-3008],[112533,110176,-2976],[111542,110410,-3048],[110203,111482,-3112],[109882,112682,-3056],[108816,113095,-3040],[108583,113028,-3040]]"
dragonvalley_2321_02_06event,MoveSuperPoint_FollowRail,dragonvalley_2321_02_06event,"[[125660,111308,-3104],[125222,110829,-3096],[124709,110118,-3104],[124223,109031,-3080],[123909,108848,-3032],[122643,108116,-3000],[121904,108590,-2960],[120835,109910,-3008],[120012,110324,-3056],[118921,110468,-3008],[118124,110602,-2992],[117138,110497,-2992],[115961,110342,-3016],[114915,110061,-3016],[112409,110340,-2968],[111418,110710,-3032],[110075,111414,-3080],[109542,112726,-3048],[109104,112827,-3048],[108891,112804,-3048]]"
dragonvalley_2321_03_01event,MoveSuperPoint_FollowRail,dragonvalley_2321_03_01event,"[[108012,117472,-3056],[108386,117821,-3056],[108967,118407,-3144],[109707,119222,-3088],[110175,119514,-3056],[111310,119372,-3048],[111871,118865,-3096],[112412,118087,-3056],[113157,117337,-3144],[113483,116458,-3184],[114166,115505,-3264],[115228,114994,-3176],[116261,114452,-3072],[117009,113804,-3056],[117328,113297,-3056],[117407,112622,-3056],[117452,111736,-3048],[117785,110891,-3040],[117938,110145,-2944],[117944,109594,-2864]]"
dragonvalley_2321_03_02event,MoveSuperPoint_FollowRail,dragonvalley_2321_03_02event,"[[108100,117460,-3056],[108454,117801,-3040],[108963,118311,-3120],[109687,119166,-3104],[110107,119406,-3056],[111302,119276,-3056],[111867,118769,-3088],[112408,117995,-3040],[113153,117241,-3128],[113475,116190,-3216],[114162,115701,-3288],[115228,115094,-3176],[116257,114524,-3072],[117005,113708,-3056],[117336,113201,-3056],[117463,112566,-3056],[117420,111224,-3056],[117781,110443,-2960],[117954,109929,-2928],[118036,109662,-2896]]"
dragonvalley_2321_03_03event,MoveSuperPoint_FollowRail,dragonvalley_2321_03_03event,"[[107992,117528,-3056],[108330,117805,-3056],[108963,118427,-3152],[109655,119142,-3104],[110075,119434,-3064],[111246,119360,-3048],[111851,118921,-3088],[112392,118167,-3064],[113225,117353,-3144],[113447,116738,-3152],[114146,115909,-3248],[115212,115274,-3168],[116241,114508,-3072],[116989,113860,-3056],[117400,113273,-3040],[117503,112718,-3056],[117512,111792,-3056],[117765,110683,-3000],[117866,110081,-2944],[117816,109726,-2888]]"
dragonvalley_2321_03_04event,MoveSuperPoint_FollowRail,dragonvalley_2321_03_04event,"[[117780,109703,-2880],[117906,110168,-2944],[117636,111063,-3056],[117476,111846,-3048],[117469,112467,-3056],[117376,113293,-3056],[116900,114001,-3056],[116173,114528,-3072],[115024,115326,-3200],[114157,115719,-3272],[113652,116508,-3176],[113357,116853,-3144],[113105,117481,-3120],[112676,117904,-3072],[112106,118586,-3080],[111613,119053,-3056],[111321,119296,-3048],[110894,119384,-3056],[110548,119405,-3056],[110135,119373,-3056],[109847,119416,-3072],[109202,118690,-3152],[108491,117947,-3040],[108061,117527,-3056]]"
dragonvalley_2321_03_05event,MoveSuperPoint_FollowRail,dragonvalley_2321_03_05event,"[[117680,109661,-2856],[117802,110144,-2944],[117564,111055,-3048],[117404,111838,-3048],[117397,112459,-3056],[117304,113285,-3056],[116828,113993,-3056],[116101,114696,-3088],[114952,115318,-3200],[114085,115647,-3288],[113528,116328,-3200],[113285,116845,-3144],[113033,117473,-3120],[112604,117896,-3056],[112034,118578,-3080],[111541,119045,-3056],[111249,119288,-3056],[110814,119352,-3056],[110476,119365,-3056],[110063,119329,-3072],[109679,119292,-3088],[109130,118682,-3160],[108419,117935,-3040],[108029,117563,-3056]]"
dragonvalley_2321_03_06event,MoveSuperPoint_FollowRail,dragonvalley_2321_03_06event,"[[117861,109697,-2888],[118014,110192,-2944],[117712,111087,-3056],[117552,111870,-3056],[117545,112491,-3056],[117452,113333,-3056],[116976,114025,-3056],[116249,114728,-3080],[115100,115350,-3176],[114233,115743,-3280],[113648,116380,-3184],[113433,116877,-3152],[113181,117505,-3144],[112752,117928,-3072],[112182,118610,-3088],[111689,119077,-3064],[111397,119320,-3056],[110970,119408,-3056],[110624,119429,-3056],[110211,119429,-3056],[109827,119288,-3080],[109278,118714,-3144],[108567,117967,-3056],[108137,117547,-3056]]"
dragonvalley_2321_04_01event,MoveSuperPoint_FollowRail,dragonvalley_2321_04_01event,"[[112230,122831,-3720],[112316,122609,-3720],[112925,122113,-3696],[113548,121582,-3720],[113800,120780,-3768],[114490,120414,-3736],[115377,119966,-3656],[116086,119364,-3704],[116453,118637,-3720],[116660,117768,-3720],[117120,117226,-3720],[117716,116860,-3720],[118375,116609,-3720],[119026,116449,-3736],[119642,116093,-3784],[119919,115580,-3736],[120168,114808,-3656],[120445,114296,-3688],[120081,113448,-3776],[120107,112965,-3784],[120264,112449,-3728]]"
dragonvalley_2321_04_02event,MoveSuperPoint_FollowRail,dragonvalley_2321_04_02event,"[[112164,122824,-3720],[112236,122617,-3720],[112649,122073,-3720],[113404,121542,-3720],[113656,120924,-3744],[114346,120566,-3760],[115233,119926,-3664],[115798,119552,-3672],[116309,118597,-3720],[116516,117728,-3720],[116976,117186,-3720],[117792,116512,-3720],[118331,116309,-3728],[118882,116409,-3736],[119498,116053,-3776],[119775,115540,-3744],[119924,115144,-3688],[120581,114264,-3728],[120321,113408,-3792],[120379,112925,-3792],[120472,112453,-3752]]"
dragonvalley_2321_04_03event,MoveSuperPoint_FollowRail,dragonvalley_2321_04_03event,"[[112091,122852,-3720],[112192,122593,-3720],[112701,122205,-3720],[113324,121430,-3720],[113912,120788,-3768],[114266,120510,-3784],[115153,120062,-3672],[115862,119396,-3696],[116361,118641,-3720],[116468,117720,-3720],[116896,117074,-3720],[117492,116708,-3720],[118255,116505,-3728],[118802,116297,-3736],[119418,115941,-3784],[119695,115428,-3720],[120120,115096,-3688],[120465,114352,-3680],[120241,113296,-3792],[120271,112897,-3784],[120392,112433,-3744]]"
dragonvalley_2321_04_04event,MoveSuperPoint_FollowRail,dragonvalley_2321_04_04event,"[[120528,112448,-3760],[120325,112876,-3784],[120058,113525,-3752],[120461,114352,-3680],[120129,115260,-3696],[119855,115499,-3736],[119498,115884,-3784],[119067,116297,-3744],[118284,116590,-3728],[117695,116806,-3720],[117059,116941,-3720],[116601,117654,-3720],[116216,118466,-3720],[115946,119044,-3712],[115555,119683,-3656],[114863,120204,-3688],[114229,120454,-3784],[113676,120731,-3760],[113443,121503,-3720],[112840,121916,-3712],[112251,122540,-3720],[112043,122928,-3720]]"
dragonvalley_2321_04_05event,MoveSuperPoint_FollowRail,dragonvalley_2321_04_05event,"[[120604,112448,-3752],[120269,112920,-3784],[120218,113441,-3792],[120317,113888,-3776],[120533,114624,-3648],[120095,115175,-3688],[119690,116012,-3784],[119143,116349,-3744],[118360,116626,-3720],[117771,116914,-3720],[117147,117149,-3720],[116677,117654,-3720],[116480,118466,-3720],[116106,119188,-3720],[115631,119683,-3664],[114939,120244,-3688],[114345,120490,-3760],[113800,120719,-3768],[113519,121555,-3720],[112916,122072,-3704],[112327,122672,-3720],[112119,122860,-3720]]"
dragonvalley_2321_04_06event,MoveSuperPoint_FollowRail,dragonvalley_2321_04_06event,"[[120448,112416,-3744],[120405,112892,-3784],[120086,113393,-3784],[120513,114388,-3688],[120005,115176,-3688],[119843,115623,-3752],[119630,115880,-3784],[118987,116237,-3736],[118204,116382,-3728],[117615,116718,-3720],[116991,117117,-3720],[116521,117622,-3720],[116324,118434,-3720],[115950,119156,-3712],[115387,119767,-3656],[114783,120212,-3704],[114149,120626,-3792],[113516,121115,-3728],[113363,121471,-3720],[112852,122040,-3712],[112083,122740,-3720],[111963,122988,-3720]]"
dragonvalley_2321_05_01event,MoveSuperPoint_FollowRail,dragonvalley_2321_05_01event,"[[122382,113416,-3800],[122604,113363,-3824],[122876,113529,-3808],[123176,113854,-3792],[123539,114539,-3704],[123938,114833,-3656],[124384,115080,-3672],[125059,115176,-3720],[125627,115078,-3720],[125964,115137,-3720],[126316,115235,-3720],[126560,115311,-3720],[126943,115639,-3720],[127430,116101,-3736],[127913,116277,-3760],[128256,116160,-3752],[128599,115882,-3760],[129034,115311,-3784],[129288,114403,-3744],[128492,113400,-3680],[127858,113116,-3680],[127210,112870,-3608],[126572,112821,-3512],[126023,112640,-3384],[125696,112448,-3288],[125312,112500,-3216],[124854,112332,-3112],[124508,112267,-3064],[124124,112125,-3056]]"
dragonvalley_2321_05_02event,MoveSuperPoint_FollowRail,dragonvalley_2321_05_02event,"[[122455,113494,-3800],[122517,113472,-3816],[122808,113618,-3800],[123128,113914,-3792],[123599,114395,-3712],[123890,114893,-3664],[124336,115236,-3680],[125011,115116,-3720],[125579,115138,-3720],[125916,115197,-3720],[126268,115391,-3704],[126736,115519,-3720],[126895,115699,-3720],[127314,116089,-3752],[127865,116337,-3752],[128208,116240,-3744],[128535,115938,-3760],[129134,115387,-3800],[129160,114299,-3712],[128444,113704,-3680],[127810,113176,-3672],[127162,113046,-3632],[126524,112881,-3520],[125975,112700,-3384],[125648,112508,-3280],[125264,112284,-3192],[124806,112196,-3112],[124460,112155,-3064],[124200,112121,-3056]]"
dragonvalley_2321_05_03event,MoveSuperPoint_FollowRail,dragonvalley_2321_05_03event,"[[122497,113603,-3816],[122524,113597,-3816],[122698,113704,-3808],[123076,113990,-3792],[123439,114471,-3712],[123838,114969,-3656],[124284,115312,-3664],[124959,115296,-3720],[125527,115214,-3720],[125864,115273,-3720],[126216,115251,-3720],[126460,115431,-3712],[126843,115715,-3720],[127262,116133,-3744],[127813,116413,-3744],[128156,116348,-3744],[128483,115946,-3760],[128918,115495,-3800],[129220,114423,-3720],[128344,113264,-3680],[127758,112972,-3680],[127110,112890,-3608],[126472,112957,-3512],[125923,112776,-3384],[125596,112584,-3264],[125212,112360,-3184],[124754,112260,-3112],[124604,112231,-3088],[124288,112229,-3056]]"
dragonvalley_2321_05_04event,MoveSuperPoint_FollowRail,dragonvalley_2321_05_04event,"[[124748,112064,-3104],[124951,112145,-3128],[125204,112205,-3176],[125425,112233,-3200],[125895,112814,-3376],[126481,113065,-3536],[127122,113170,-3640],[127803,113259,-3672],[128342,113427,-3680],[128747,113710,-3680],[129238,114282,-3712],[128853,115001,-3752],[128711,115557,-3800],[128594,115831,-3776],[128148,116191,-3752],[127709,116232,-3736],[127249,115924,-3752],[126928,115596,-3720],[126476,115317,-3720],[125908,115158,-3720],[125212,115230,-3720],[124483,115253,-3696],[123910,114973,-3656],[123527,114471,-3704],[123152,113784,-3784],[122891,113486,-3800],[122578,113293,-3824],[122251,113311,-3800]]"
dragonvalley_2321_05_05event,MoveSuperPoint_FollowRail,dragonvalley_2321_05_05event,"[[124720,112176,-3104],[124935,112249,-3128],[125212,112277,-3176],[125405,112337,-3216],[125875,112522,-3336],[126461,112873,-3504],[127102,112942,-3600],[127783,113171,-3672],[128322,113531,-3680],[129075,113950,-3696],[129134,114322,-3712],[128809,114977,-3752],[128735,115625,-3792],[128574,116023,-3760],[128128,116347,-3744],[127689,116312,-3736],[127229,115964,-3744],[126900,115800,-3720],[126456,115573,-3704],[125888,115262,-3720],[125192,115334,-3720],[124463,115061,-3680],[124010,114901,-3656],[123507,114575,-3696],[123184,114060,-3776],[122821,113603,-3800],[122521,113424,-3816],[122318,113426,-3800]]"
dragonvalley_2321_05_06event,MoveSuperPoint_FollowRail,dragonvalley_2321_05_06event,"[[124704,112280,-3112],[124875,112321,-3112],[125088,112357,-3160],[125361,112413,-3216],[125831,112666,-3344],[126417,112949,-3512],[127058,113018,-3600],[127739,113335,-3664],[128278,113607,-3680],[128827,113746,-3688],[129174,114458,-3736],[128765,115053,-3744],[128651,115581,-3800],[128530,115971,-3760],[128084,116319,-3752],[127661,116372,-3728],[127185,116016,-3752],[126980,115752,-3728],[126412,115501,-3704],[125844,115338,-3712],[125148,115410,-3720],[124419,115433,-3696],[123846,115153,-3648],[123463,114651,-3696],[123140,114136,-3776],[122699,113731,-3808],[122428,113563,-3800],[122374,113528,-3800]]"
giran_fort_ordery,MoveSuperPoint_FollowRail,giran_fort_ordery,"[[122636,120892,-3088],[123439,120117,-3136],[123749,119389,-3144],[124814,118783,-3064],[126141,118142,-3072],[125971,119533,-2728]]"
2321_43,MoveSuperPoint_FollowRail,2321_43,"[[112452,118372,-3072],[113144,117561,-3128],[113377,117171,-3152],[113410,116752,-3152],[113663,116274,-3200],[114178,115847,-3264],[114607,115568,-3248],[115735,115076,-3104]]"
2321_36,MoveSuperPoint_FollowRail,2321_36,"[[108508,117164,-3056],[109126,116701,-3056],[109329,115546,-3112],[109588,113845,-3040],[109474,113328,-3064]]"
2321_27,MoveSuperPoint_FollowRail,2321_27,"[[111720,110228,-3024],[114292,109846,-2992],[115327,109775,-3032],[116721,110033,-3024],[118567,109784,-2952],[120260,109097,-2936]]"
2321_26,MoveSuperPoint_FollowRail,2321_26,"[[114348,110080,-3000],[113987,110854,-3080],[114423,112148,-3096],[113658,113149,-3016],[112942,113113,-2824],[111814,112708,-2776],[111894,111702,-2760]]"
2321_22,MoveSuperPoint_FollowRail,2321_22,"[[120496,108532,-2944],[121254,108336,-2992],[121866,108211,-2960],[122250,107988,-2952],[122638,107953,-2976],[123140,108106,-3016],[123612,108445,-3008],[123826,108831,-3032],[124288,109184,-3104],[124651,109584,-3088]]"
2321_45_recon,MoveSuperPoint_FollowRail,2321_45_recon,"[[115676,114476,-3096],[114608,115028,-3192],[113306,115184,-3208],[112167,115573,-3216],[111821,116526,-3024],[111713,117411,-3016]]"
2321_24_recon,MoveSuperPoint_FollowRail,2321_24_recon,"[[116956,110272,-2984],[118031,110859,-3040],[118892,110612,-3008],[119507,110762,-3048],[119915,110701,-3056],[120167,110360,-3056],[120504,109907,-3024],[120892,109722,-3000],[121513,109523,-2912],[122015,109213,-2888],[122306,108716,-2976]]"
2321_20_recon,MoveSuperPoint_FollowRail,2321_20_recon,"[[124768,109220,-3056],[124984,109744,-3088],[125122,110324,-3080],[125037,111114,-3144],[125421,111935,-3184],[125988,112332,-3320],[126276,112725,-3440],[126497,113375,-3552]]"
2321_32_searcher,MoveSuperPoint_FollowRail,2321_32_searcher,"[[110556,111224,-3128],[111754,110583,-3032],[112597,110407,-2968],[113241,110284,-3000],[115279,110133,-3032],[116442,110352,-2984]]"
inna_fort_ordery,MoveSuperPoint_FollowRail,inna_fort_ordery,"[[113764,200438,-3720],[115894,199860,-3664],[117141,199920,-3632],[118120,200275,-3584],[119809,201019,-3608],[121865,200614,-3360],[122872,200875,-3168],[123130,202436,-3128],[122424,204158,-3456],[122656,204828,-3576],[124028,205397,-3576],[124209,206021,-3504],[124944,206728,-3400],[124480,207776,-3200]]"
godad_fort_ordery,MoveSuperPoint_FollowRail,godad_fort_ordery,"[[160828,-76244,-3240],[159761,-77615,-3560],[158836,-78156,-3776],[158995,-77362,-3736],[158757,-75955,-3720],[158157,-74156,-3592],[157577,-73369,-3408],[153824,-71502,-3392],[153094,-70711,-3464],[152287,-70365,-3568],[154343,-69846,-3144]]"
valakas_guard_b_f,MoveSuperPoint_FollowRail,valakas_guard_b_f,"[[147824,-58512,-2976],[147709,-59067,-2976],[147720,-59573,-2976],[147703,-61491,-3496],[147587,-62499,-3472]]"
gordon,MoveSuperPoint_FollowRail,gordon,"[[147408,-43552,-2296],[147927,-43264,-2296],[148668,-43435,-2312],[149308,-43910,-2464],[150447,-44190,-2608],[151346,-44070,-2736],[152074,-43362,-2816],[152721,-42632,-2824],[153326,-41826,-2936],[153733,-41173,-3000],[154295,-40347,-3112],[154700,-39687,-3200],[155474,-39961,-3272],[155882,-40436,-3296],[156629,-41452,-3472],[156846,-42484,-3600],[156786,-44059,-3760],[157820,-45121,-3544],[158808,-45454,-3464],[159675,-46178,-3544],[160320,-46947,-3648],[159841,-47765,-3656],[158963,-48596,-3648],[159399,-49889,-3632],[159433,-51854,-3392],[159280,-53297,-3240],[159946,-54651,-3080],[160696,-55985,-2856],[160991,-57416,-2704],[160936,-58715,-2616],[160371,-59892,-2640],[158884,-60114,-2672],[157476,-59727,-2648],[155709,-59670,-2616],[155076,-59988,-2640],[154278,-60389,-2688],[153611,-61611,-2816],[153553,-62292,-2832],[153104,-63694,-2968],[151460,-64204,-3144],[149179,-64630,-3280],[147461,-64792,-3432],[145659,-64514,-3360],[144096,-64402,-3392],[141323,-62083,-3144],[140157,-61442,-3064],[138438,-61664,-3040],[138168,-61294,-3000],[138402,-60920,-3056],[138656,-59869,-3280],[138910,-58621,-3440],[138096,-57667,-3504],[138096,-56967,-3504],[138878,-56655,-3456],[139660,-56120,-3288],[139101,-54466,-3216],[139848,-52589,-2832],[139222,-51369,-2688],[139705,-50039,-2496],[139959,-48987,-2256],[140283,-47506,-2208],[140162,-46243,-2336],[142508,-45584,-2416],[143183,-44563,-2392],[144382,-43528,-2344],[145382,-43318,-2296],[147265,-43588,-2296]]"
ruin_prophet_aden,MoveSuperPoint_FollowRail,ruin_prophet_aden,"[[147436,25809,-2008],[146358,25810,-2008],[146363,24145,-2008],[146339,25823,-2008],[148546,25817,-2008]]"
aden_fort_a_ordery,MoveSuperPoint_FollowRail,aden_fort_a_ordery,"[[159403,52418,-3312],[161177,54083,-3560],[162152,54365,-3632],[162703,55840,-3696],[162370,58534,-3504],[160099,60034,-3224],[158048,62696,-3464],[157220,63450,-3520],[155076,63731,-3544],[153893,64441,-3656],[153085,62948,-3680],[153035,62296,-3688],[150866,58737,-3432]]"
24_21_course1,MoveSuperPoint_FollowRail,24_21_course1,"[[140604,114508,-3720],[141213,114571,-3720],[142089,114339,-3720],[142576,113686,-3720],[143010,113831,-3720],[143602,114477,-3720],[143991,114774,-3720],[144817,114949,-3720],[145290,115368,-3720],[145585,115841,-3720],[146135,116140,-3720],[146707,116377,-3720],[147285,116135,-3720],[148116,116153,-3720],[148834,115673,-3720],[149253,114841,-3720],[149268,114236,-3720],[149118,113220,-3720],[148658,112282,-3720],[148093,112008,-3720],[147011,112399,-3720],[145848,112771,-3720],[145003,113763,-3720],[145123,114965,-3720],[145672,115854,-3720],[146267,116153,-3720],[146862,116277,-3720],[147254,117077,-3712],[148486,117838,-3712]]"
24_21_course2,MoveSuperPoint_FollowRail,24_21_course2,"[[143820,110172,-3936],[142599,110060,-3944],[142477,110686,-3944],[142736,111263,-3944],[143154,111808,-3944],[143567,112067,-3944],[142814,111870,-3944],[142081,112055,-3800],[141859,112305,-3720],[141448,112739,-3720],[140917,113042,-3720],[140686,112332,-3720],[140641,111953,-3720],[140545,111532,-3840],[140581,110501,-3944],[141167,109649,-3944],[142038,109301,-3944],[142990,108693,-3944],[142849,108131,-3944],[142639,107729,-3944],[142548,107332,-3944],[143270,107225,-3944],[144648,107664,-3944],[144471,108299,-3944],[145009,108670,-3944],[146240,109339,-3944],[147700,109819,-3944]]"
24_21_course3,MoveSuperPoint_FollowRail,24_21_course3,"[[146460,109809,-3424],[146523,109139,-3472],[146565,108198,-3704],[146959,107785,-3920],[147629,107309,-4040],[148344,107544,-4176],[149032,108402,-4352],[149869,108299,-4568],[150297,107596,-4680],[151286,107257,-4872],[152409,107695,-5072],[153554,107857,-5152],[153552,108326,-5152],[153496,108810,-5152],[152927,109267,-5152],[151702,109307,-5152],[151116,109293,-5136],[150287,109522,-5120],[149574,109763,-5224],[149387,110508,-5400],[149404,110880,-5464],[149815,111397,-5504],[151689,111304,-5520],[153164,111658,-5520],[153551,111249,-5520],[153437,110763,-5520],[152339,110422,-5520]]"
24_21_course4,MoveSuperPoint_FollowRail,24_21_course4,"[[145484,120220,-3912],[146262,121372,-3912],[146180,121825,-3912],[145691,121944,-3912],[144585,121464,-3912],[143985,121211,-3904],[143526,121078,-3912],[141770,121528,-3912],[140740,120742,-3896],[140174,119815,-3912],[140492,119201,-3912],[141119,117931,-3912],[142105,117257,-3912],[143028,117334,-3912],[142917,118083,-3904],[142349,118750,-3896],[142659,119882,-3912]]"
anta01,MoveSuperPoint_FollowRail,anta01,"[[144588,114415,-3712],[145028,113964,-3720],[145565,112796,-3720],[147292,112298,-3720],[148870,112879,-3720],[149289,114446,-3720],[148699,115797,-3720],[147622,116455,-3696],[146089,116189,-3720],[145478,115466,-3720]]"
anta07,MoveSuperPoint_FollowRail,anta07,"[[147470,112233,-3720],[148062,112676,-3720],[148825,112787,-3720],[149111,114411,-3720],[149144,115414,-3720],[147399,116543,-3696],[146176,116041,-3720],[144933,115060,-3720],[145177,113945,-3720],[145195,113291,-3720],[146235,112582,-3720],[147183,112277,-3720]]"
anta03,MoveSuperPoint_FollowRail,anta03,"[[149046,115713,-3704],[148057,116273,-3720],[146962,116166,-3720],[146389,116343,-3720],[145427,115902,-3720],[145046,115063,-3720],[144970,114122,-3720],[145268,113186,-3720],[145917,112638,-3720],[147622,112236,-3720],[148443,111807,-3720],[149182,113166,-3720],[149326,114798,-3720]]"
anta02,MoveSuperPoint_FollowRail,anta02,"[[147121,116447,-3704],[145821,116127,-3720],[145068,115317,-3720],[145179,114573,-3720],[145000,113473,-3720],[145932,112608,-3720],[146666,112633,-3720],[147091,112393,-3720],[148426,111834,-3720],[149058,112739,-3720],[149142,114352,-3720],[149043,115349,-3720],[148261,116040,-3720]]"
anta08,MoveSuperPoint_FollowRail,anta08,"[[148061,115909,-3720],[147307,116433,-3704],[146655,116399,-3720],[146032,115995,-3720],[145633,116057,-3720],[144925,115154,-3720],[144808,114123,-3720],[145036,113883,-3720],[145096,113268,-3720],[145787,112631,-3720],[146682,112832,-3720],[147141,112184,-3720],[148343,111922,-3720],[149016,112619,-3720],[149372,114234,-3720],[149286,115316,-3720],[148599,115938,-3720]]"
anta06,MoveSuperPoint_FollowRail,anta06,"[[145243,115607,-3720],[144847,115093,-3720],[144861,114199,-3720],[145144,113171,-3720],[145911,112548,-3720],[146522,112680,-3720],[147183,112253,-3720],[148265,111844,-3720],[148866,112217,-3720],[149181,113493,-3720],[149235,115266,-3720],[148119,116207,-3720],[146757,116484,-3712],[145609,115952,-3720]]"
anta09,MoveSuperPoint_FollowRail,anta09,"[[149090,114015,-3720],[149261,115199,-3720],[148620,116040,-3720],[147369,116408,-3704],[146526,116372,-3720],[145452,115861,-3720],[144951,115161,-3720],[145011,113841,-3720],[145332,113052,-3720],[146005,112544,-3720],[146795,112506,-3720],[148371,111951,-3720],[149008,112730,-3720],[149184,113764,-3720]]"
anta05,MoveSuperPoint_FollowRail,anta05,"[[146396,112467,-3720],[147275,112366,-3720],[148404,111708,-3720],[149011,112200,-3720],[148978,112976,-3720],[149389,114042,-3720],[149190,115059,-3720],[148757,115760,-3720],[148243,115972,-3720],[147309,116338,-3704],[146711,116448,-3720],[146132,116125,-3720],[145514,115844,-3720],[144996,114996,-3720],[144919,114193,-3720],[145296,113303,-3720],[145900,112548,-3720]]"
anta04,MoveSuperPoint_FollowRail,anta04,"[[148969,112462,-3720],[149307,114122,-3720],[149288,115027,-3720],[149201,115569,-3704],[147999,116333,-3720],[147147,116334,-3712],[146400,116303,-3720],[145724,116099,-3720],[145416,115539,-3720],[144759,115017,-3720],[145048,114051,-3720],[145052,113345,-3720],[145976,112652,-3720],[146742,112671,-3720],[147298,112206,-3720],[148285,111836,-3720],[148868,112217,-3720]]"
argos_daemon_roaming,MoveSuperPoint_FollowRail,argos_daemon_roaming,"[[191276,-49556,-2960],[193537,-47182,-2952],[194317,-43736,-2864],[193336,-42510,-2880],[194633,-40843,-2872],[194498,-39516,-2872],[191985,-35868,-2896],[190083,-35015,-2896],[188048,-36544,-3104],[186256,-35136,-3064],[184477,-36749,-3072],[180834,-37288,-3080],[179653,-38946,-3168],[179854,-42412,-3240],[177627,-43341,-3320],[177842,-45723,-3440],[180459,-47145,-3256],[175858,-51288,-3488],[173028,-49337,-3488],[171936,-46364,-3448],[173074,-44264,-3456],[172575,-42937,-3440],[170964,-41753,-3448],[170428,-39132,-3432]]"
aden_fort_b_ordery,MoveSuperPoint_FollowRail,aden_fort_b_ordery,"[[189568,45998,-4264],[188066,44424,-4704],[187312,43915,-4880],[185929,41880,-4512],[185288,39417,-4200],[184992,36898,-4176],[184344,36397,-4080],[185305,35874,-3936],[185770,35954,-3832],[186705,35662,-3752]]"
giant_sp_24,MoveSuperPoint_FollowRail,giant_sp_24,"[[192391,60460,-6096],[192369,62825,-6096],[193729,62806,-6096],[193769,61647,-6096],[189415,61641,-6104],[193777,61573,-6096],[193794,60448,-6096]]"
giant_sp_27,MoveSuperPoint_FollowRail,giant_sp_27,"[[187126,62637,-7232],[187918,62709,-7232],[187880,59989,-7232],[186858,59997,-7232],[187188,60445,-7232]]"
giant_sp_28,MoveSuperPoint_FollowRail,giant_sp_28,"[[186348,60158,-7232],[182591,60217,-7232],[182537,59724,-7232],[186183,59787,-7232]]"
giant_sp_36,MoveSuperPoint_FollowRail,giant_sp_36,"[[190221,60035,-7232],[190193,61829,-7232],[191916,61811,-7232],[191963,59719,-7232],[193536,59724,-7232],[193649,61768,-7232],[191848,61768,-7232],[192061,59796,-7232],[190223,59791,-7232]]"
giant_sp_38,MoveSuperPoint_FollowRail,giant_sp_38,"[[187740,55516,-7232],[187028,55338,-7232],[185995,55483,-7232],[185818,56887,-7232],[186652,57316,-7232],[187806,57075,-7232],[188054,56055,-7232]]"